MIPStest.vcd
$date
	Tue Aug 27 06:11:47 2019
$end
$version
	Icarus Verilog
$end
$timescale
	1ps
$end
$scope module MIPS_testbench $end
$scope module dut $end
$var wire 1 ! clk $end
$var wire 1 " reset $end
$var wire 32 # writedata [31:0] $end
$var wire 32 $ readdata [31:0] $end
$var wire 32 % pc [31:0] $end
$var wire 1 & memwrite $end
$var wire 32 ' instr [31:0] $end
$var wire 32 ( dataadr [31:0] $end
$scope module datamem $end
$var wire 1 ! clk $end
$var wire 32 ) rd [31:0] $end
$var wire 1 & we $end
$var wire 32 * wd [31:0] $end
$var wire 32 + a [31:0] $end
$upscope $end
$scope module imem $end
$var wire 6 , a [5:0] $end
$var wire 32 - rd [31:0] $end
$upscope $end
$scope module mips $end
$var wire 1 ! clk $end
$var wire 32 . instr [31:0] $end
$var wire 32 / readdata [31:0] $end
$var wire 1 " reset $end
$var wire 32 0 writedata [31:0] $end
$var wire 1 1 regwrite_id $end
$var wire 1 2 regdst_id $end
$var wire 32 3 pc [31:0] $end
$var wire 1 & memwrite_mem $end
$var wire 1 4 memwrite_id $end
$var wire 1 5 memtoreg_id $end
$var wire 32 6 instr_id [31:0] $end
$var wire 1 7 branch_id $end
$var wire 1 8 alusrc_id $end
$var wire 32 9 aluout [31:0] $end
$var wire 3 : alucontrol_id [2:0] $end
$scope module c $end
$var wire 6 ; funct [5:0] $end
$var wire 6 < op [5:0] $end
$var wire 1 1 regwrite $end
$var wire 1 2 regdst $end
$var wire 1 4 memwrite $end
$var wire 1 5 memtoreg $end
$var wire 1 7 branch $end
$var wire 1 8 alusrc $end
$var wire 2 = aluop [1:0] $end
$var wire 3 > alucontrol [2:0] $end
$scope module ad $end
$var wire 6 ? funct [5:0] $end
$var wire 2 @ aluop [1:0] $end
$var reg 3 A alucontrol [2:0] $end
$upscope $end
$scope module md $end
$var wire 6 B op [5:0] $end
$var wire 1 1 regwrite $end
$var wire 1 2 regdst $end
$var wire 1 4 memwrite $end
$var wire 1 5 memtoreg $end
$var wire 1 7 branch $end
$var wire 1 8 alusrc $end
$var wire 2 C aluop [1:0] $end
$var reg 8 D controls [7:0] $end
$upscope $end
$upscope $end
$scope module dp $end
$var wire 3 E alucontrol_id [2:0] $end
$var wire 1 8 alusrc_id $end
$var wire 1 7 branch_id $end
$var wire 1 ! clk $end
$var wire 32 F instr [31:0] $end
$var wire 1 5 memtoreg_id $end
$var wire 1 4 memwrite_id $end
$var wire 1 G pcsrc $end
$var wire 32 H readdata_mem [31:0] $end
$var wire 1 2 regdst_id $end
$var wire 1 1 regwrite_id $end
$var wire 1 " reset $end
$var wire 1 I zero_mem $end
$var wire 1 J zero_ex $end
$var wire 5 K writereg_wb [4:0] $end
$var wire 5 L writereg_mem [4:0] $end
$var wire 5 M writereg_ex [4:0] $end
$var wire 32 N writedata_mem [31:0] $end
$var wire 32 O writedata_id [31:0] $end
$var wire 32 P writedata_ex [31:0] $end
$var wire 32 Q srcb [31:0] $end
$var wire 32 R srca_id [31:0] $end
$var wire 32 S srca_ex [31:0] $end
$var wire 32 T signimmsh [31:0] $end
$var wire 32 U signimm_id [31:0] $end
$var wire 32 V signimm_ex [31:0] $end
$var wire 5 W rie_id [4:0] $end
$var wire 5 X rie_ex [4:0] $end
$var wire 32 Y result [31:0] $end
$var wire 1 Z regwrite_wb $end
$var wire 1 [ regwrite_mem $end
$var wire 1 \ regwrite_ex $end
$var wire 1 ] regdst_ex $end
$var wire 32 ^ readdata_wb [31:0] $end
$var wire 5 _ rde_id [4:0] $end
$var wire 5 ` rde_ex [4:0] $end
$var wire 32 a pcplus4_if [31:0] $end
$var wire 32 b pcplus4_id [31:0] $end
$var wire 32 c pcplus4_ex [31:0] $end
$var wire 32 d pcnext [31:0] $end
$var wire 32 e pcbranch_mem [31:0] $end
$var wire 32 f pcbranch_ex [31:0] $end
$var wire 32 g pc [31:0] $end
$var wire 1 & memwrite_mem $end
$var wire 1 h memwrite_ex $end
$var wire 1 i memtoreg_wb $end
$var wire 1 j memtoreg_mem $end
$var wire 1 k memtoreg_ex $end
$var wire 32 l instr_id [31:0] $end
$var wire 1 m branch_mem $end
$var wire 1 n branch_ex $end
$var wire 1 o alusrc_ex $end
$var wire 32 p aluout_wb [31:0] $end
$var wire 32 q aluout_mem [31:0] $end
$var wire 32 r aluout_ex [31:0] $end
$var wire 3 s alucontrol_ex [2:0] $end
$scope module alu $end
$var wire 32 t not_b [31:0] $end
$var wire 32 u y [31:0] $end
$var wire 1 J zero $end
$var wire 32 v s [31:0] $end
$var wire 3 w f [2:0] $end
$var wire 32 x bb [31:0] $end
$var wire 32 y b [31:0] $end
$var wire 32 z a [31:0] $end
$var reg 32 { out [31:0] $end
$upscope $end
$scope module ex_mem_pipeline $end
$var wire 1 ! clk $end
$var wire 32 | in_aluout [31:0] $end
$var wire 1 J in_zero $end
$var wire 5 } in_writereg [4:0] $end
$var wire 32 ~ in_writedata [31:0] $end
$var wire 1 \ in_regwrite $end
$var wire 32 !" in_pcbranch [31:0] $end
$var wire 1 h in_memwrite $end
$var wire 1 k in_memtoreg $end
$var wire 1 n in_branch $end
$var reg 32 "" out_aluout [31:0] $end
$var reg 1 m out_branch $end
$var reg 1 j out_memtoreg $end
$var reg 1 & out_memwrite $end
$var reg 32 #" out_pcbranch [31:0] $end
$var reg 1 [ out_regwrite $end
$var reg 32 $" out_writedata [31:0] $end
$var reg 5 %" out_writereg [4:0] $end
$var reg 1 I out_zero $end
$upscope $end
$scope module id_ex_pipeline $end
$var wire 1 ! clk $end
$var wire 3 &" in_alucontrol [2:0] $end
$var wire 1 8 in_alusrc $end
$var wire 1 7 in_branch $end
$var wire 1 5 in_memtoreg $end
$var wire 1 4 in_memwrite $end
$var wire 5 '" in_rde [4:0] $end
$var wire 1 2 in_regdst $end
$var wire 1 1 in_regwrite $end
$var wire 5 (" in_rie [4:0] $end
$var wire 32 )" in_writedata [31:0] $end
$var wire 32 *" in_srca [31:0] $end
$var wire 32 +" in_signimm [31:0] $end
$var wire 32 ," in_pcplus4 [31:0] $end
$var reg 3 -" out_alucontrol [2:0] $end
$var reg 1 o out_alusrc $end
$var reg 1 n out_branch $end
$var reg 1 k out_memtoreg $end
$var reg 1 h out_memwrite $end
$var reg 32 ." out_pcplus4 [31:0] $end
$var reg 5 /" out_rde [4:0] $end
$var reg 1 ] out_regdst $end
$var reg 1 \ out_regwrite $end
$var reg 5 0" out_rie [4:0] $end
$var reg 32 1" out_signimm [31:0] $end
$var reg 32 2" out_srca [31:0] $end
$var reg 32 3" out_writedata [31:0] $end
$upscope $end
$scope module if_id_pipeline $end
$var wire 1 ! clk $end
$var wire 32 4" in_inst [31:0] $end
$var wire 1 " reset $end
$var wire 32 5" in_pcplus4 [31:0] $end
$var reg 32 6" out_inst [31:0] $end
$var reg 32 7" out_pcplus4 [31:0] $end
$upscope $end
$scope module immsh $end
$var wire 32 8" a [31:0] $end
$var wire 32 9" y [31:0] $end
$upscope $end
$scope module mem_wb_pipeline $end
$var wire 1 ! clk $end
$var wire 32 :" in_aluout [31:0] $end
$var wire 1 j in_memtoreg $end
$var wire 32 ;" in_readdata [31:0] $end
$var wire 1 [ in_regwrite $end
$var wire 5 <" in_writereg [4:0] $end
$var reg 32 =" out_aluout [31:0] $end
$var reg 1 i out_memtoreg $end
$var reg 32 >" out_readdata [31:0] $end
$var reg 1 Z out_regwrite $end
$var reg 5 ?" out_writereg [4:0] $end
$upscope $end
$scope module pcadd1 $end
$var wire 32 @" b [31:0] $end
$var wire 32 A" y [31:0] $end
$var wire 32 B" a [31:0] $end
$upscope $end
$scope module pcadd2 $end
$var wire 32 C" a [31:0] $end
$var wire 32 D" b [31:0] $end
$var wire 32 E" y [31:0] $end
$upscope $end
$scope module pcbrmux $end
$var wire 32 F" d0 [31:0] $end
$var wire 32 G" d1 [31:0] $end
$var wire 1 G s $end
$var wire 32 H" y [31:0] $end
$upscope $end
$scope module pcreg $end
$var wire 1 ! clk $end
$var wire 32 I" d [31:0] $end
$var wire 1 " reset $end
$var reg 32 J" q [31:0] $end
$upscope $end
$scope module remux $end
$var wire 32 K" d0 [31:0] $end
$var wire 32 L" d1 [31:0] $end
$var wire 1 i s $end
$var wire 32 M" y [31:0] $end
$upscope $end
$scope module rf $end
$var wire 1 ! clk $end
$var wire 5 N" read_address1 [4:0] $end
$var wire 5 O" read_address2 [4:0] $end
$var wire 5 P" write_address3 [4:0] $end
$var wire 32 Q" write_data3 [31:0] $end
$var wire 1 Z write_enable $end
$var wire 32 R" read_data2 [31:0] $end
$var wire 32 S" read_data1 [31:0] $end
$upscope $end
$scope module se $end
$var wire 16 T" a [15:0] $end
$var wire 32 U" y [31:0] $end
$upscope $end
$scope module srcbmux $end
$var wire 32 V" d0 [31:0] $end
$var wire 32 W" d1 [31:0] $end
$var wire 1 o s $end
$var wire 32 X" y [31:0] $end
$upscope $end
$scope module wrmux $end
$var wire 5 Y" d0 [4:0] $end
$var wire 5 Z" d1 [4:0] $end
$var wire 1 ] s $end
$var wire 5 [" y [4:0] $end
$upscope $end
$upscope $end
$upscope $end
$upscope $end
$upscope $end
$enddefinitions $end
#0
$dumpvars
bx ["
bx Z"
bx Y"
bx X"
bx W"
bx V"
b0 U"
b0 T"
b0 S"
b0 R"
b0 Q"
b0 P"
b0 O"
b0 N"
b0 M"
bx L"
b0 K"
b0 J"
b100 I"
b100 H"
b0 G"
b100 F"
bx E"
bx00 D"
bx C"
b0 B"
b100 A"
b100 @"
b0 ?"
bx >"
b0 ="
b0 <"
bx ;"
b0 :"
bx00 9"
bx 8"
b0 7"
b0 6"
b100 5"
b100000000010000000000000000011 4"
bx 3"
bx 2"
bx 1"
bx 0"
bx /"
bx ."
bx -"
b0 ,"
b0 +"
b0 *"
b0 )"
b0 ("
b0 '"
b10 &"
b0 %"
b0 $"
b0 #"
b0 ""
bx !"
bx ~
bx }
b0 |
b0 {
bx z
bx y
bx x
bx w
bx v
b0 u
bx t
bx s
b0 r
b0 q
b0 p
xo
xn
0m
b0 l
xk
0j
0i
xh
b0 g
bx f
b0 e
b100 d
bx c
b0 b
b100 a
bx `
b0 _
bx ^
x]
x\
0[
0Z
b0 Y
bx X
b0 W
bx V
b0 U
bx00 T
bx S
b0 R
bx Q
bx P
b0 O
b0 N
bx M
b0 L
b0 K
1J
1I
bx H
0G
b100000000010000000000000000011 F
b10 E
b11000010 D
b10 C
b0 B
b10 A
b10 @
b0 ?
b10 >
b10 =
b0 <
b0 ;
b10 :
b0 9
08
07
b0 6
05
04
b0 3
12
11
b0 0
bx /
b100000000010000000000000000011 .
b100000000010000000000000000011 -
b0 ,
b0 +
b0 *
bx )
b0 (
b100000000010000000000000000011 '
0&
b0 %
bx $
b0 #
1"
1!
$end
#5000
0!
#10000
bx d
bx H"
bx I"
b0 v
b0 x
b11111111111111111111111111111111 t
xG
b0 f
b0 !"
b0 E"
b0 T
b0 9"
b0 D"
b0 M
b0 }
b0 ["
b0 Q
b0 y
b0 X"
1J
b0 r
b0 u
b0 |
b0 {
x&
xm
x[
xj
bx e
bx #"
bx G"
bx L
bx %"
bx <"
bx #
bx *
bx 0
bx N
bx $"
1]
0o
b10 s
b10 w
b10 -"
0h
0n
1\
0k
b0 V
b0 1"
b0 8"
b0 W"
b0 `
b0 /"
b0 Z"
b0 X
b0 0"
b0 Y"
b0 P
b0 ~
b0 3"
b0 V"
b0 S
b0 z
b0 2"
b0 c
b0 ."
b0 C"
1!
#15000
0!
#20000
0G
b100 d
b100 H"
b100 I"
bx Y
bx M"
bx Q"
0&
0m
1[
0j
b0 e
b0 #"
b0 G"
b0 L
b0 %"
b0 <"
b0 #
b0 *
b0 0
b0 N
b0 $"
xZ
xi
bx K
bx ?"
bx P"
1!
#22000
0"
#25000
0!
#30000
02
18
b0 =
b0 @
b0 C
b10100000 D
bx O
bx )"
bx R"
b0 Y
b0 M"
b0 Q"
b1000 W
b1000 ("
b11 U
b11 +"
b11 U"
b11 T"
b1000 O"
b11 ;
b11 ?
b1000 <
b1000 B
b1000 d
b1000 H"
b1000 I"
b0 '
b0 -
b0 .
b0 F
b0 4"
b1 ,
1Z
0i
b0 K
b0 ?"
b0 P"
b100000000010000000000000000011 6
b100000000010000000000000000011 l
b100000000010000000000000000011 6"
b100 b
b100 ,"
b100 7"
b1000 a
b1000 5"
b1000 A"
b1000 F"
b100 %
b100 3
b100 g
b100 B"
b100 J"
1!
#35000
0!
#40000
12
08
b10 =
b10 @
b10 C
b11000010 D
0J
b11 r
b11 u
b11 |
b11 {
b11 v
b11 x
b11111111111111111111111111111100 t
b0 O
b0 )"
b0 R"
b1000 M
b1000 }
b1000 ["
b1100 T
b1100 9"
b1100 D"
b11 Q
b11 y
b11 X"
b1100 d
b1100 H"
b1100 I"
b10 ,
b0 W
b0 ("
b0 U
b0 +"
b0 U"
b0 T"
b0 O"
b0 ;
b0 ?
b0 <
b0 B
0]
1o
b11 V
b11 1"
b11 8"
b11 W"
b1000 X
b1000 0"
b1000 Y"
bx P
bx ~
bx 3"
bx V"
b10000 f
b10000 !"
b10000 E"
b100 c
b100 ."
b100 C"
b1100 a
b1100 5"
b1100 A"
b1100 F"
b1000 %
b1000 3
b1000 g
b1000 B"
b1000 J"
b0 6
b0 l
b0 6"
b1000 b
b1000 ,"
b1000 7"
1!
#45000
0!
#50000
1J
b0 r
b0 u
b0 |
b0 {
b0 v
b0 x
b11111111111111111111111111111111 t
b0 T
b0 9"
b0 D"
b0 Q
b0 y
b0 X"
b0 M
b0 }
b0 ["
b10000 d
b10000 H"
b10000 I"
b11 ,
b10000 e
b10000 #"
b10000 G"
b1000 L
b1000 %"
b1000 <"
bx #
bx *
bx 0
bx N
bx $"
b11 (
b11 +
b11 9
b11 q
b11 ""
b11 :"
0I
1]
0o
b0 V
b0 1"
b0 8"
b0 W"
b0 X
b0 0"
b0 Y"
b0 P
b0 ~
b0 3"
b0 V"
b1000 f
b1000 !"
b1000 E"
b1000 c
b1000 ."
b1000 C"
b1100 b
b1100 ,"
b1100 7"
b10000 a
b10000 5"
b10000 A"
b10000 F"
b1100 %
b1100 3
b1100 g
b1100 B"
b1100 J"
1!
#55000
0!
#60000
b11 Y
b11 M"
b11 Q"
b10100 d
b10100 H"
b10100 I"
b100 ,
b1100 f
b1100 !"
b1100 E"
b1100 c
b1100 ."
b1100 C"
b1000 e
b1000 #"
b1000 G"
b0 L
b0 %"
b0 <"
b0 #
b0 *
b0 0
b0 N
b0 $"
b0 (
b0 +
b0 9
b0 q
b0 ""
b0 :"
1I
b1000 K
b1000 ?"
b1000 P"
b11 p
b11 ="
b11 K"
b10100 a
b10100 5"
b10100 A"
b10100 F"
b10000 %
b10000 3
b10000 g
b10000 B"
b10000 J"
b10000 b
b10000 ,"
b10000 7"
1!
#65000
0!
#70000
b0 Y
b0 M"
b0 Q"
b11000 d
b11000 H"
b11000 I"
b100000000010010000000000000101 '
b100000000010010000000000000101 -
b100000000010010000000000000101 .
b100000000010010000000000000101 F
b100000000010010000000000000101 4"
b101 ,
b0 K
b0 ?"
b0 P"
b0 p
b0 ="
b0 K"
b1100 e
b1100 #"
b1100 G"
b10000 f
b10000 !"
b10000 E"
b10000 c
b10000 ."
b10000 C"
b10100 b
b10100 ,"
b10100 7"
b11000 a
b11000 5"
b11000 A"
b11000 F"
b10100 %
b10100 3
b10100 g
b10100 B"
b10100 J"
1!
#75000
0!
#80000
02
18
b0 =
b0 @
b0 C
b10100000 D
bx O
bx )"
bx R"
b11100 d
b11100 H"
b11100 I"
b0 '
b0 -
b0 .
b0 F
b0 4"
b110 ,
b1001 W
b1001 ("
b101 U
b101 +"
b101 U"
b101 T"
b1001 O"
b101 ;
b101 ?
b1000 <
b1000 B
b10100 f
b10100 !"
b10100 E"
b10100 c
b10100 ."
b10100 C"
b10000 e
b10000 #"
b10000 G"
b11100 a
b11100 5"
b11100 A"
b11100 F"
b11000 %
b11000 3
b11000 g
b11000 B"
b11000 J"
b100000000010010000000000000101 6
b100000000010010000000000000101 l
b100000000010010000000000000101 6"
b11000 b
b11000 ,"
b11000 7"
1!
#85000
0!
#90000
12
08
b10 =
b10 @
b10 C
b11000010 D
0J
b101 r
b101 u
b101 |
b101 {
b101 v
b101 x
b11111111111111111111111111111010 t
b0 O
b0 )"
b0 R"
b1001 M
b1001 }
b1001 ["
b10100 T
b10100 9"
b10100 D"
b101 Q
b101 y
b101 X"
b0 W
b0 ("
b0 U
b0 +"
b0 U"
b0 T"
b0 O"
b0 ;
b0 ?
b0 <
b0 B
b100000 d
b100000 H"
b100000 I"
b111 ,
b10100 e
b10100 #"
b10100 G"
0]
1o
b101 V
b101 1"
b101 8"
b101 W"
b1001 X
b1001 0"
b1001 Y"
bx P
bx ~
bx 3"
bx V"
b101100 f
b101100 !"
b101100 E"
b11000 c
b11000 ."
b11000 C"
b0 6
b0 l
b0 6"
b11100 b
b11100 ,"
b11100 7"
b100000 a
b100000 5"
b100000 A"
b100000 F"
b11100 %
b11100 3
b11100 g
b11100 B"
b11100 J"
1!
#95000
0!
#100000
1J
b0 r
b0 u
b0 |
b0 {
b0 v
b0 x
b11111111111111111111111111111111 t
b0 T
b0 9"
b0 D"
b0 Q
b0 y
b0 X"
b0 M
b0 }
b0 ["
b100100 d
b100100 H"
b100100 I"
b1000 ,
1]
0o
b0 V
b0 1"
b0 8"
b0 W"
b0 X
b0 0"
b0 Y"
b0 P
b0 ~
b0 3"
b0 V"
b11100 f
b11100 !"
b11100 E"
b11100 c
b11100 ."
b11100 C"
b101100 e
b101100 #"
b101100 G"
b1001 L
b1001 %"
b1001 <"
bx #
bx *
bx 0
bx N
bx $"
b101 (
b101 +
b101 9
b101 q
b101 ""
b101 :"
0I
b100100 a
b100100 5"
b100100 A"
b100100 F"
b100000 %
b100000 3
b100000 g
b100000 B"
b100000 J"
b100000 b
b100000 ,"
b100000 7"
1!
#105000
0!
#110000
b101 Y
b101 M"
b101 Q"
b101000 d
b101000 H"
b101000 I"
b1001 ,
b1001 K
b1001 ?"
b1001 P"
b101 p
b101 ="
b101 K"
b11100 e
b11100 #"
b11100 G"
b0 L
b0 %"
b0 <"
b0 #
b0 *
b0 0
b0 N
b0 $"
b0 (
b0 +
b0 9
b0 q
b0 ""
b0 :"
1I
b100000 f
b100000 !"
b100000 E"
b100000 c
b100000 ."
b100000 C"
b100100 b
b100100 ,"
b100100 7"
b101000 a
b101000 5"
b101000 A"
b101000 F"
b100100 %
b100100 3
b100100 g
b100100 B"
b100100 J"
1!
#115000
0!
#120000
b0 Y
b0 M"
b0 Q"
b101100 d
b101100 H"
b101100 I"
b100000000010100000000000000110 '
b100000000010100000000000000110 -
b100000000010100000000000000110 .
b100000000010100000000000000110 F
b100000000010100000000000000110 4"
b1010 ,
b100100 f
b100100 !"
b100100 E"
b100100 c
b100100 ."
b100100 C"
b100000 e
b100000 #"
b100000 G"
b0 K
b0 ?"
b0 P"
b0 p
b0 ="
b0 K"
b101100 a
b101100 5"
b101100 A"
b101100 F"
b101000 %
b101000 3
b101000 g
b101000 B"
b101000 J"
b101000 b
b101000 ,"
b101000 7"
1!
#125000
0!
#130000
02
18
b0 =
b0 @
b0 C
b10100000 D
bx O
bx )"
bx R"
b1010 W
b1010 ("
b110 U
b110 +"
b110 U"
b110 T"
b1010 O"
b110 ;
b110 ?
b1000 <
b1000 B
b110000 d
b110000 H"
b110000 I"
b0 '
b0 -
b0 .
b0 F
b0 4"
b1011 ,
b100100 e
b100100 #"
b100100 G"
b101000 f
b101000 !"
b101000 E"
b101000 c
b101000 ."
b101000 C"
b100000000010100000000000000110 6
b100000000010100000000000000110 l
b100000000010100000000000000110 6"
b101100 b
b101100 ,"
b101100 7"
b110000 a
b110000 5"
b110000 A"
b110000 F"
b101100 %
b101100 3
b101100 g
b101100 B"
b101100 J"
1!
#135000
0!
#140000
12
08
b10 =
b10 @
b10 C
b11000010 D
0J
b110 r
b110 u
b110 |
b110 {
b110 v
b110 x
b11111111111111111111111111111001 t
b0 O
b0 )"
b0 R"
b1010 M
b1010 }
b1010 ["
b11000 T
b11000 9"
b11000 D"
b110 Q
b110 y
b110 X"
b110100 d
b110100 H"
b110100 I"
b1100 ,
b0 W
b0 ("
b0 U
b0 +"
b0 U"
b0 T"
b0 O"
b0 ;
b0 ?
b0 <
b0 B
0]
1o
b110 V
b110 1"
b110 8"
b110 W"
b1010 X
b1010 0"
b1010 Y"
bx P
bx ~
bx 3"
bx V"
b1000100 f
b1000100 !"
b1000100 E"
b101100 c
b101100 ."
b101100 C"
b101000 e
b101000 #"
b101000 G"
b110100 a
b110100 5"
b110100 A"
b110100 F"
b110000 %
b110000 3
b110000 g
b110000 B"
b110000 J"
b0 6
b0 l
b0 6"
b110000 b
b110000 ,"
b110000 7"
1!
#145000
0!
#150000
1J
b0 r
b0 u
b0 |
b0 {
b0 v
b0 x
b11111111111111111111111111111111 t
b0 T
b0 9"
b0 D"
b0 Q
b0 y
b0 X"
b0 M
b0 }
b0 ["
b111000 d
b111000 H"
b111000 I"
b1101 ,
b1000100 e
b1000100 #"
b1000100 G"
b1010 L
b1010 %"
b1010 <"
bx #
bx *
bx 0
bx N
bx $"
b110 (
b110 +
b110 9
b110 q
b110 ""
b110 :"
0I
1]
0o
b0 V
b0 1"
b0 8"
b0 W"
b0 X
b0 0"
b0 Y"
b0 P
b0 ~
b0 3"
b0 V"
b110000 f
b110000 !"
b110000 E"
b110000 c
b110000 ."
b110000 C"
b110100 b
b110100 ,"
b110100 7"
b111000 a
b111000 5"
b111000 A"
b111000 F"
b110100 %
b110100 3
b110100 g
b110100 B"
b110100 J"
1!
#155000
0!
#160000
b110 Y
b110 M"
b110 Q"
b111100 d
b111100 H"
b111100 I"
b1110 ,
b110100 f
b110100 !"
b110100 E"
b110100 c
b110100 ."
b110100 C"
b110000 e
b110000 #"
b110000 G"
b0 L
b0 %"
b0 <"
b0 #
b0 *
b0 0
b0 N
b0 $"
b0 (
b0 +
b0 9
b0 q
b0 ""
b0 :"
1I
b1010 K
b1010 ?"
b1010 P"
b110 p
b110 ="
b110 K"
b111100 a
b111100 5"
b111100 A"
b111100 F"
b111000 %
b111000 3
b111000 g
b111000 B"
b111000 J"
b111000 b
b111000 ,"
b111000 7"
1!
#165000
0!
#170000
b0 Y
b0 M"
b0 Q"
b1000000 d
b1000000 H"
b1000000 I"
b100000000101100000000000010100 '
b100000000101100000000000010100 -
b100000000101100000000000010100 .
b100000000101100000000000010100 F
b100000000101100000000000010100 4"
b1111 ,
b0 K
b0 ?"
b0 P"
b0 p
b0 ="
b0 K"
b110100 e
b110100 #"
b110100 G"
b111000 f
b111000 !"
b111000 E"
b111000 c
b111000 ."
b111000 C"
b111100 b
b111100 ,"
b111100 7"
b1000000 a
b1000000 5"
b1000000 A"
b1000000 F"
b111100 %
b111100 3
b111100 g
b111100 B"
b111100 J"
1!
#175000
0!
#180000
02
18
b0 =
b0 @
b0 C
b10100000 D
bx O
bx )"
bx R"
b1000100 d
b1000100 H"
b1000100 I"
b0 '
b0 -
b0 .
b0 F
b0 4"
b10000 ,
b10110 W
b10110 ("
b10100 U
b10100 +"
b10100 U"
b10100 T"
b10110 O"
b10100 ;
b10100 ?
b1000 <
b1000 B
b111100 f
b111100 !"
b111100 E"
b111100 c
b111100 ."
b111100 C"
b111000 e
b111000 #"
b111000 G"
b1000100 a
b1000100 5"
b1000100 A"
b1000100 F"
b1000000 %
b1000000 3
b1000000 g
b1000000 B"
b1000000 J"
b100000000101100000000000010100 6
b100000000101100000000000010100 l
b100000000101100000000000010100 6"
b1000000 b
b1000000 ,"
b1000000 7"
1!
#185000
0!
#190000
12
08
b10 =
b10 @
b10 C
b11000010 D
0J
b10100 r
b10100 u
b10100 |
b10100 {
b10100 v
b10100 x
b11111111111111111111111111101011 t
b0 O
b0 )"
b0 R"
b10110 M
b10110 }
b10110 ["
b1010000 T
b1010000 9"
b1010000 D"
b10100 Q
b10100 y
b10100 X"
b0 W
b0 ("
b0 U
b0 +"
b0 U"
b0 T"
b0 O"
b0 ;
b0 ?
b0 <
b0 B
b1001000 d
b1001000 H"
b1001000 I"
b10001 ,
b111100 e
b111100 #"
b111100 G"
0]
1o
b10100 V
b10100 1"
b10100 8"
b10100 W"
b10110 X
b10110 0"
b10110 Y"
bx P
bx ~
bx 3"
bx V"
b10010000 f
b10010000 !"
b10010000 E"
b1000000 c
b1000000 ."
b1000000 C"
b0 6
b0 l
b0 6"
b1000100 b
b1000100 ,"
b1000100 7"
b1001000 a
b1001000 5"
b1001000 A"
b1001000 F"
b1000100 %
b1000100 3
b1000100 g
b1000100 B"
b1000100 J"
1!
#195000
0!
#200000
1J
b0 r
b0 u
b0 |
b0 {
b0 v
b0 x
b11111111111111111111111111111111 t
b0 T
b0 9"
b0 D"
b0 Q
b0 y
b0 X"
b0 M
b0 }
b0 ["
b1001100 d
b1001100 H"
b1001100 I"
b10010 ,
1]
0o
b0 V
b0 1"
b0 8"
b0 W"
b0 X
b0 0"
b0 Y"
b0 P
b0 ~
b0 3"
b0 V"
b1000100 f
b1000100 !"
b1000100 E"
b1000100 c
b1000100 ."
b1000100 C"
b10010000 e
b10010000 #"
b10010000 G"
b10110 L
b10110 %"
b10110 <"
bx #
bx *
bx 0
bx N
bx $"
b10100 (
b10100 +
b10100 9
b10100 q
b10100 ""
b10100 :"
0I
b1001100 a
b1001100 5"
b1001100 A"
b1001100 F"
b1001000 %
b1001000 3
b1001000 g
b1001000 B"
b1001000 J"
b1001000 b
b1001000 ,"
b1001000 7"
1!
#205000
0!
#210000
b10100 Y
b10100 M"
b10100 Q"
b1010000 d
b1010000 H"
b1010000 I"
b10011 ,
b10110 K
b10110 ?"
b10110 P"
b10100 p
b10100 ="
b10100 K"
b1000100 e
b1000100 #"
b1000100 G"
b0 L
b0 %"
b0 <"
b0 #
b0 *
b0 0
b0 N
b0 $"
b0 (
b0 +
b0 9
b0 q
b0 ""
b0 :"
1I
b1001000 f
b1001000 !"
b1001000 E"
b1001000 c
b1001000 ."
b1001000 C"
b1001100 b
b1001100 ,"
b1001100 7"
b1010000 a
b1010000 5"
b1010000 A"
b1010000 F"
b1001100 %
b1001100 3
b1001100 g
b1001100 B"
b1001100 J"
1!
#215000
0!
#220000
b0 Y
b0 M"
b0 Q"
b1010100 d
b1010100 H"
b1010100 I"
b100000000100010000000000001111 '
b100000000100010000000000001111 -
b100000000100010000000000001111 .
b100000000100010000000000001111 F
b100000000100010000000000001111 4"
b10100 ,
b1001100 f
b1001100 !"
b1001100 E"
b1001100 c
b1001100 ."
b1001100 C"
b1001000 e
b1001000 #"
b1001000 G"
b0 K
b0 ?"
b0 P"
b0 p
b0 ="
b0 K"
b1010100 a
b1010100 5"
b1010100 A"
b1010100 F"
b1010000 %
b1010000 3
b1010000 g
b1010000 B"
b1010000 J"
b1010000 b
b1010000 ,"
b1010000 7"
1!
#225000
0!
#230000
02
18
b0 =
b0 @
b0 C
b10100000 D
bx O
bx )"
bx R"
b10001 W
b10001 ("
b1111 U
b1111 +"
b1111 U"
b1111 T"
b10001 O"
b1111 ;
b1111 ?
b1000 <
b1000 B
b1011000 d
b1011000 H"
b1011000 I"
b0 '
b0 -
b0 .
b0 F
b0 4"
b10101 ,
b1001100 e
b1001100 #"
b1001100 G"
b1010000 f
b1010000 !"
b1010000 E"
b1010000 c
b1010000 ."
b1010000 C"
b100000000100010000000000001111 6
b100000000100010000000000001111 l
b100000000100010000000000001111 6"
b1010100 b
b1010100 ,"
b1010100 7"
b1011000 a
b1011000 5"
b1011000 A"
b1011000 F"
b1010100 %
b1010100 3
b1010100 g
b1010100 B"
b1010100 J"
1!
#235000
0!
#240000
12
08
b10 =
b10 @
b10 C
b11000010 D
0J
b1111 r
b1111 u
b1111 |
b1111 {
b1111 v
b1111 x
b11111111111111111111111111110000 t
b0 O
b0 )"
b0 R"
b10001 M
b10001 }
b10001 ["
b111100 T
b111100 9"
b111100 D"
b1111 Q
b1111 y
b1111 X"
b1011100 d
b1011100 H"
b1011100 I"
b10110 ,
b0 W
b0 ("
b0 U
b0 +"
b0 U"
b0 T"
b0 O"
b0 ;
b0 ?
b0 <
b0 B
0]
1o
b1111 V
b1111 1"
b1111 8"
b1111 W"
b10001 X
b10001 0"
b10001 Y"
bx P
bx ~
bx 3"
bx V"
b10010000 f
b10010000 !"
b10010000 E"
b1010100 c
b1010100 ."
b1010100 C"
b1010000 e
b1010000 #"
b1010000 G"
b1011100 a
b1011100 5"
b1011100 A"
b1011100 F"
b1011000 %
b1011000 3
b1011000 g
b1011000 B"
b1011000 J"
b0 6
b0 l
b0 6"
b1011000 b
b1011000 ,"
b1011000 7"
1!
#245000
0!
#250000
1J
b0 r
b0 u
b0 |
b0 {
b0 v
b0 x
b11111111111111111111111111111111 t
b0 T
b0 9"
b0 D"
b0 Q
b0 y
b0 X"
b0 M
b0 }
b0 ["
b1100000 d
b1100000 H"
b1100000 I"
b10111 ,
b10010000 e
b10010000 #"
b10010000 G"
b10001 L
b10001 %"
b10001 <"
bx #
bx *
bx 0
bx N
bx $"
b1111 (
b1111 +
b1111 9
b1111 q
b1111 ""
b1111 :"
0I
1]
0o
b0 V
b0 1"
b0 8"
b0 W"
b0 X
b0 0"
b0 Y"
b0 P
b0 ~
b0 3"
b0 V"
b1011000 f
b1011000 !"
b1011000 E"
b1011000 c
b1011000 ."
b1011000 C"
b1011100 b
b1011100 ,"
b1011100 7"
b1100000 a
b1100000 5"
b1100000 A"
b1100000 F"
b1011100 %
b1011100 3
b1011100 g
b1011100 B"
b1011100 J"
1!
#255000
0!
