MIPStest.vcd
$date
	Wed Aug 28 14:53:49 2019
$end
$version
	Icarus Verilog
$end
$timescale
	1ps
$end
$scope module MIPS_testbench $end
$scope module dut $end
$var wire 1 ! clk $end
$var wire 1 " reset $end
$var wire 32 # writedata [31:0] $end
$var wire 32 $ readdata [31:0] $end
$var wire 32 % pc [31:0] $end
$var wire 1 & memwrite $end
$var wire 32 ' instr [31:0] $end
$var wire 32 ( dataadr [31:0] $end
$scope module datamem $end
$var wire 1 ! clk $end
$var wire 32 ) rd [31:0] $end
$var wire 1 & we $end
$var wire 32 * wd [31:0] $end
$var wire 32 + a [31:0] $end
$upscope $end
$scope module imem $end
$var wire 6 , a [5:0] $end
$var wire 32 - rd [31:0] $end
$upscope $end
$scope module mips $end
$var wire 1 ! clk $end
$var wire 32 . instr [31:0] $end
$var wire 32 / readdata [31:0] $end
$var wire 1 " reset $end
$var wire 32 0 writedata [31:0] $end
$var wire 1 1 regwrite_id $end
$var wire 1 2 regdst_id $end
$var wire 32 3 pc [31:0] $end
$var wire 1 & memwrite_mem $end
$var wire 1 4 memwrite_id $end
$var wire 1 5 memtoreg_id $end
$var wire 32 6 instr_id [31:0] $end
$var wire 1 7 branch_id $end
$var wire 1 8 alusrc_id $end
$var wire 32 9 aluout [31:0] $end
$var wire 3 : alucontrol_id [2:0] $end
$scope module c $end
$var wire 6 ; funct [5:0] $end
$var wire 6 < op [5:0] $end
$var wire 1 1 regwrite $end
$var wire 1 2 regdst $end
$var wire 1 4 memwrite $end
$var wire 1 5 memtoreg $end
$var wire 1 7 branch $end
$var wire 1 8 alusrc $end
$var wire 2 = aluop [1:0] $end
$var wire 3 > alucontrol [2:0] $end
$scope module ad $end
$var wire 6 ? funct [5:0] $end
$var wire 2 @ aluop [1:0] $end
$var reg 3 A alucontrol [2:0] $end
$upscope $end
$scope module md $end
$var wire 6 B op [5:0] $end
$var wire 1 1 regwrite $end
$var wire 1 2 regdst $end
$var wire 1 4 memwrite $end
$var wire 1 5 memtoreg $end
$var wire 1 7 branch $end
$var wire 1 8 alusrc $end
$var wire 2 C aluop [1:0] $end
$var reg 8 D controls [7:0] $end
$upscope $end
$upscope $end
$scope module dp $end
$var wire 3 E alucontrol_id [2:0] $end
$var wire 1 8 alusrc_id $end
$var wire 1 7 branch_id $end
$var wire 1 ! clk $end
$var wire 32 F instr [31:0] $end
$var wire 1 5 memtoreg_id $end
$var wire 1 4 memwrite_id $end
$var wire 1 G pcsrc $end
$var wire 32 H readdata_mem [31:0] $end
$var wire 1 2 regdst_id $end
$var wire 1 1 regwrite_id $end
$var wire 1 " reset $end
$var wire 1 I zero_mem $end
$var wire 1 J zero_ex $end
$var wire 5 K writereg_wb [4:0] $end
$var wire 5 L writereg_mem [4:0] $end
$var wire 5 M writereg_ex [4:0] $end
$var wire 32 N writedata_mem [31:0] $end
$var wire 32 O writedata_id [31:0] $end
$var wire 32 P writedata_ex [31:0] $end
$var wire 32 Q srcb [31:0] $end
$var wire 32 R srca_id [31:0] $end
$var wire 32 S srca_ex [31:0] $end
$var wire 32 T signimmsh [31:0] $end
$var wire 32 U signimm_id [31:0] $end
$var wire 32 V signimm_ex [31:0] $end
$var wire 5 W rte_id [4:0] $end
$var wire 5 X rte_ex [4:0] $end
$var wire 5 Y rse_id [4:0] $end
$var wire 5 Z rse_ex [4:0] $end
$var wire 32 [ result [31:0] $end
$var wire 1 \ regwrite_wb $end
$var wire 1 ] regwrite_mem $end
$var wire 1 ^ regwrite_ex $end
$var wire 1 _ regdst_ex $end
$var wire 32 ` readdata_wb [31:0] $end
$var wire 5 a rde_id [4:0] $end
$var wire 5 b rde_ex [4:0] $end
$var wire 32 c pre_srcb [31:0] $end
$var wire 32 d pre_srca_ex [31:0] $end
$var wire 32 e pcplus4_if [31:0] $end
$var wire 32 f pcplus4_id [31:0] $end
$var wire 32 g pcplus4_ex [31:0] $end
$var wire 32 h pcnext [31:0] $end
$var wire 32 i pcbranch_mem [31:0] $end
$var wire 32 j pcbranch_ex [31:0] $end
$var wire 32 k pc [31:0] $end
$var wire 1 & memwrite_mem $end
$var wire 1 l memwrite_ex $end
$var wire 1 m memtoreg_wb $end
$var wire 1 n memtoreg_mem $end
$var wire 1 o memtoreg_ex $end
$var wire 32 p instr_id [31:0] $end
$var wire 2 q forward_b [1:0] $end
$var wire 2 r forward_a [1:0] $end
$var wire 1 s branch_mem $end
$var wire 1 t branch_ex $end
$var wire 1 u alusrc_ex $end
$var wire 32 v aluout_wb [31:0] $end
$var wire 32 w aluout_mem [31:0] $end
$var wire 32 x aluout_ex [31:0] $end
$var wire 3 y alucontrol_ex [2:0] $end
$scope module alu $end
$var wire 32 z not_b [31:0] $end
$var wire 32 { y [31:0] $end
$var wire 1 J zero $end
$var wire 32 | s [31:0] $end
$var wire 3 } f [2:0] $end
$var wire 32 ~ bb [31:0] $end
$var wire 32 !" b [31:0] $end
$var wire 32 "" a [31:0] $end
$var reg 32 #" out [31:0] $end
$upscope $end
$scope module ex_mem_pipeline $end
$var wire 1 ! clk $end
$var wire 32 $" in_aluout [31:0] $end
$var wire 1 J in_zero $end
$var wire 5 %" in_writereg [4:0] $end
$var wire 32 &" in_writedata [31:0] $end
$var wire 1 ^ in_regwrite $end
$var wire 32 '" in_pcbranch [31:0] $end
$var wire 1 l in_memwrite $end
$var wire 1 o in_memtoreg $end
$var wire 1 t in_branch $end
$var reg 32 (" out_aluout [31:0] $end
$var reg 1 s out_branch $end
$var reg 1 n out_memtoreg $end
$var reg 1 & out_memwrite $end
$var reg 32 )" out_pcbranch [31:0] $end
$var reg 1 ] out_regwrite $end
$var reg 32 *" out_writedata [31:0] $end
$var reg 5 +" out_writereg [4:0] $end
$var reg 1 I out_zero $end
$upscope $end
$scope module hazard_check $end
$var wire 1 ] regwrite_mem $end
$var wire 5 ," writereg_mem [4:0] $end
$var wire 5 -" writereg_wb [4:0] $end
$var wire 5 ." rte_ex [4:0] $end
$var wire 5 /" rse_ex [4:0] $end
$var wire 1 \ regwrite_wb $end
$var wire 2 0" forward_b [1:0] $end
$var wire 2 1" forward_a [1:0] $end
$scope function func_forward_a $end
$var reg 1 2" regwrite_mem $end
$var reg 1 3" regwrite_wb $end
$var reg 5 4" rse_ex [4:0] $end
$var reg 5 5" writereg_mem [4:0] $end
$var reg 5 6" writereg_wb [4:0] $end
$upscope $end
$scope function func_forward_b $end
$var reg 1 7" regwrite_mem $end
$var reg 1 8" regwrite_wb $end
$var reg 5 9" rte_ex [4:0] $end
$var reg 5 :" writereg_mem [4:0] $end
$var reg 5 ;" writereg_wb [4:0] $end
$upscope $end
$upscope $end
$scope module id_ex_pipeline $end
$var wire 1 ! clk $end
$var wire 3 <" in_alucontrol [2:0] $end
$var wire 1 8 in_alusrc $end
$var wire 1 7 in_branch $end
$var wire 1 5 in_memtoreg $end
$var wire 1 4 in_memwrite $end
$var wire 5 =" in_rde [4:0] $end
$var wire 1 2 in_regdst $end
$var wire 1 1 in_regwrite $end
$var wire 5 >" in_rse [4:0] $end
$var wire 5 ?" in_rte [4:0] $end
$var wire 32 @" in_writedata [31:0] $end
$var wire 32 A" in_srca [31:0] $end
$var wire 32 B" in_signimm [31:0] $end
$var wire 32 C" in_pcplus4 [31:0] $end
$var reg 3 D" out_alucontrol [2:0] $end
$var reg 1 u out_alusrc $end
$var reg 1 t out_branch $end
$var reg 1 o out_memtoreg $end
$var reg 1 l out_memwrite $end
$var reg 32 E" out_pcplus4 [31:0] $end
$var reg 5 F" out_rde [4:0] $end
$var reg 1 _ out_regdst $end
$var reg 1 ^ out_regwrite $end
$var reg 5 G" out_rse [4:0] $end
$var reg 5 H" out_rte [4:0] $end
$var reg 32 I" out_signimm [31:0] $end
$var reg 32 J" out_srca [31:0] $end
$var reg 32 K" out_writedata [31:0] $end
$upscope $end
$scope module if_id_pipeline $end
$var wire 1 ! clk $end
$var wire 32 L" in_inst [31:0] $end
$var wire 1 " reset $end
$var wire 32 M" in_pcplus4 [31:0] $end
$var reg 32 N" out_inst [31:0] $end
$var reg 32 O" out_pcplus4 [31:0] $end
$upscope $end
$scope module immsh $end
$var wire 32 P" a [31:0] $end
$var wire 32 Q" y [31:0] $end
$upscope $end
$scope module mem_wb_pipeline $end
$var wire 1 ! clk $end
$var wire 32 R" in_aluout [31:0] $end
$var wire 1 n in_memtoreg $end
$var wire 32 S" in_readdata [31:0] $end
$var wire 1 ] in_regwrite $end
$var wire 5 T" in_writereg [4:0] $end
$var reg 32 U" out_aluout [31:0] $end
$var reg 1 m out_memtoreg $end
$var reg 32 V" out_readdata [31:0] $end
$var reg 1 \ out_regwrite $end
$var reg 5 W" out_writereg [4:0] $end
$upscope $end
$scope module mux_forward_a $end
$var wire 32 X" d0 [31:0] $end
$var wire 32 Y" d2 [31:0] $end
$var wire 2 Z" s [1:0] $end
$var wire 32 [" y [31:0] $end
$var wire 32 \" d1 [31:0] $end
$upscope $end
$scope module mux_forward_b $end
$var wire 32 ]" d2 [31:0] $end
$var wire 2 ^" s [1:0] $end
$var wire 32 _" y [31:0] $end
$var wire 32 `" d1 [31:0] $end
$var wire 32 a" d0 [31:0] $end
$upscope $end
$scope module pcadd1 $end
$var wire 32 b" b [31:0] $end
$var wire 32 c" y [31:0] $end
$var wire 32 d" a [31:0] $end
$upscope $end
$scope module pcadd2 $end
$var wire 32 e" a [31:0] $end
$var wire 32 f" b [31:0] $end
$var wire 32 g" y [31:0] $end
$upscope $end
$scope module pcbrmux $end
$var wire 32 h" d0 [31:0] $end
$var wire 32 i" d1 [31:0] $end
$var wire 1 G s $end
$var wire 32 j" y [31:0] $end
$upscope $end
$scope module pcreg $end
$var wire 1 ! clk $end
$var wire 32 k" d [31:0] $end
$var wire 1 " reset $end
$var reg 32 l" q [31:0] $end
$upscope $end
$scope module remux $end
$var wire 32 m" d0 [31:0] $end
$var wire 32 n" d1 [31:0] $end
$var wire 1 m s $end
$var wire 32 o" y [31:0] $end
$upscope $end
$scope module rf $end
$var wire 1 ! clk $end
$var wire 5 p" read_address1 [4:0] $end
$var wire 5 q" read_address2 [4:0] $end
$var wire 5 r" write_address3 [4:0] $end
$var wire 32 s" write_data3 [31:0] $end
$var wire 1 \ write_enable $end
$var wire 32 t" read_data2 [31:0] $end
$var wire 32 u" read_data1 [31:0] $end
$upscope $end
$scope module se $end
$var wire 16 v" a [15:0] $end
$var wire 32 w" y [31:0] $end
$upscope $end
$scope module srcbmux $end
$var wire 32 x" d0 [31:0] $end
$var wire 32 y" d1 [31:0] $end
$var wire 1 u s $end
$var wire 32 z" y [31:0] $end
$upscope $end
$scope module wrmux $end
$var wire 5 {" d0 [4:0] $end
$var wire 5 |" d1 [4:0] $end
$var wire 1 _ s $end
$var wire 5 }" y [4:0] $end
$upscope $end
$upscope $end
$upscope $end
$upscope $end
$upscope $end
$enddefinitions $end
#0
$dumpvars
bx }"
bx |"
bx {"
bx z"
bx y"
bx x"
b0 w"
b0 v"
b0 u"
b0 t"
b0 s"
b0 r"
b0 q"
b0 p"
b0 o"
bx n"
b0 m"
b0 l"
b100 k"
b100 j"
b0 i"
b100 h"
bx g"
bx00 f"
bx e"
b0 d"
b100 c"
b100 b"
bx a"
b0 `"
bx _"
b0 ^"
b0 ]"
b0 \"
bx ["
b0 Z"
b0 Y"
bx X"
b0 W"
bx V"
b0 U"
b0 T"
bx S"
b0 R"
bx00 Q"
bx P"
b0 O"
b0 N"
b100 M"
b100000000010000000000000000100 L"
bx K"
bx J"
bx I"
bx H"
bx G"
bx F"
bx E"
bx D"
b0 C"
b0 B"
b0 A"
b0 @"
b0 ?"
b0 >"
b0 ="
b10 <"
b0 ;"
b0 :"
bx 9"
08"
07"
b0 6"
b0 5"
bx 4"
03"
02"
b0 1"
b0 0"
bx /"
bx ."
b0 -"
b0 ,"
b0 +"
b0 *"
b0 )"
b0 ("
bx '"
bx &"
bx %"
b0 $"
b0 #"
bx ""
bx !"
bx ~
bx }
bx |
b0 {
bx z
bx y
b0 x
b0 w
b0 v
xu
xt
0s
b0 r
b0 q
b0 p
xo
0n
0m
xl
b0 k
bx j
b0 i
b100 h
bx g
b0 f
b100 e
bx d
bx c
bx b
b0 a
bx `
x_
x^
0]
0\
b0 [
bx Z
b0 Y
bx X
b0 W
bx V
b0 U
bx00 T
bx S
b0 R
bx Q
bx P
b0 O
b0 N
bx M
b0 L
b0 K
1J
1I
bx H
0G
b100000000010000000000000000100 F
b10 E
b11000010 D
b10 C
b0 B
b10 A
b10 @
b0 ?
b10 >
b10 =
b0 <
b0 ;
b10 :
b0 9
08
07
b0 6
05
04
b0 3
12
11
b0 0
bx /
b100000000010000000000000000100 .
b100000000010000000000000000100 -
b0 ,
b0 +
b0 *
bx )
b0 (
b100000000010000000000000000100 '
0&
b0 %
bx $
b0 #
1"
1!
$end
#5000
0!
#10000
b0 |
b0 ~
b11111111111111111111111111111111 z
b0 Q
b0 !"
b0 _"
bx h
bx j"
bx k"
b0 S
b0 ""
b0 ["
xG
1J
b0 x
b0 {
b0 $"
b0 #"
b0 j
b0 '"
b0 g"
b0 T
b0 Q"
b0 f"
b0 M
b0 %"
b0 }"
b0 9"
bx :"
x7"
b0 4"
bx 5"
x2"
b0 c
b0 a"
b0 z"
x&
xs
x]
xn
bx i
bx )"
bx i"
bx L
bx +"
bx ,"
bx T"
bx #
bx *
bx 0
bx N
bx *"
1_
0u
b10 y
b10 }
b10 D"
0l
0t
1^
0o
b0 V
b0 I"
b0 P"
b0 y"
b0 b
b0 F"
b0 |"
b0 X
b0 ."
b0 H"
b0 {"
b0 Z
b0 /"
b0 G"
b0 P
b0 &"
b0 K"
b0 x"
b0 d
b0 J"
b0 X"
b0 g
b0 E"
b0 e"
1!
#15000
0!
#20000
0G
b100 h
b100 j"
b100 k"
bx [
bx \"
bx `"
bx o"
bx s"
bx ;"
b0 :"
17"
x8"
bx 6"
b0 5"
12"
x3"
0&
0s
1]
0n
b0 i
b0 )"
b0 i"
b0 L
b0 +"
b0 ,"
b0 T"
b0 #
b0 *
b0 0
b0 N
b0 *"
x\
xm
bx K
bx -"
bx W"
bx r"
1!
#22000
0"
#25000
0!
#30000
02
18
b0 =
b0 @
b0 C
b10100000 D
bx O
bx @"
bx t"
b0 [
b0 \"
b0 `"
b0 o"
b0 s"
b0 ;"
18"
b0 6"
13"
b1000 W
b1000 ?"
b100 U
b100 B"
b100 w"
b100 v"
b1000 q"
b100 ;
b100 ?
b1000 <
b1000 B
b1000 h
b1000 j"
b1000 k"
b100000000010010000000000000101 '
b100000000010010000000000000101 -
b100000000010010000000000000101 .
b100000000010010000000000000101 F
b100000000010010000000000000101 L"
b1 ,
1\
0m
b0 K
b0 -"
b0 W"
b0 r"
b100000000010000000000000000100 6
b100000000010000000000000000100 p
b100000000010000000000000000100 N"
b100 f
b100 C"
b100 O"
b1000 e
b1000 M"
b1000 c"
b1000 h"
b100 %
b100 3
b100 k
b100 d"
b100 l"
1!
#35000
0!
#40000
0J
b100 x
b100 {
b100 $"
b100 #"
b100 |
b100 ~
b11111111111111111111111111111011 z
b100 Q
b100 !"
b100 _"
b1000 M
b1000 %"
b1000 }"
b10000 T
b10000 Q"
b10000 f"
b1000 9"
b100 c
b100 a"
b100 z"
b1100 h
b1100 j"
b1100 k"
b100000000010100000000000010001 '
b100000000010100000000000010001 -
b100000000010100000000000010001 .
b100000000010100000000000010001 F
b100000000010100000000000010001 L"
b10 ,
b1001 W
b1001 ?"
b101 U
b101 B"
b101 w"
b101 v"
b1001 q"
b101 ;
b101 ?
0_
1u
b100 V
b100 I"
b100 P"
b100 y"
b1000 X
b1000 ."
b1000 H"
b1000 {"
bx P
bx &"
bx K"
bx x"
b10100 j
b10100 '"
b10100 g"
b100 g
b100 E"
b100 e"
b1100 e
b1100 M"
b1100 c"
b1100 h"
b1000 %
b1000 3
b1000 k
b1000 d"
b1000 l"
b100000000010010000000000000101 6
b100000000010010000000000000101 p
b100000000010010000000000000101 N"
b1000 f
b1000 C"
b1000 O"
1!
#45000
0!
#50000
b101 x
b101 {
b101 $"
b101 #"
b101 |
b101 ~
b11111111111111111111111111111010 z
b101 Q
b101 !"
b101 _"
b1000 5"
b10100 T
b10100 Q"
b10100 f"
b101 c
b101 a"
b101 z"
b1001 M
b1001 %"
b1001 }"
b1001 9"
b1000 :"
b1010 W
b1010 ?"
b10001 U
b10001 B"
b10001 w"
b10001 v"
b1010 q"
b10001 ;
b10001 ?
b10000 h
b10000 j"
b10000 k"
b100000000100010000000000000101 '
b100000000100010000000000000101 -
b100000000100010000000000000101 .
b100000000100010000000000000101 F
b100000000100010000000000000101 L"
b11 ,
b10100 i
b10100 )"
b10100 i"
b1000 L
b1000 +"
b1000 ,"
b1000 T"
bx #
bx *
bx 0
bx N
bx *"
b100 (
b100 +
b100 9
b100 w
b100 ("
b100 R"
b100 Y"
b100 ]"
0I
b101 V
b101 I"
b101 P"
b101 y"
b1001 X
b1001 ."
b1001 H"
b1001 {"
b11100 j
b11100 '"
b11100 g"
b1000 g
b1000 E"
b1000 e"
b100000000010100000000000010001 6
b100000000010100000000000010001 p
b100000000010100000000000010001 N"
b1100 f
b1100 C"
b1100 O"
b10000 e
b10000 M"
b10000 c"
b10000 h"
b1100 %
b1100 3
b1100 k
b1100 d"
b1100 l"
1!
#55000
0!
#60000
b10001 x
b10001 {
b10001 $"
b10001 #"
b10001 |
b10001 ~
b11111111111111111111111111101110 z
b10001 Q
b10001 !"
b10001 _"
b1000100 T
b1000100 Q"
b1000100 f"
b10001 c
b10001 a"
b10001 z"
b1010 M
b1010 %"
b1010 }"
b1010 9"
b1000 ;"
b1001 :"
b1000 6"
b1001 5"
b100 [
b100 \"
b100 `"
b100 o"
b100 s"
b10100 h
b10100 j"
b10100 k"
b100000000100100000000000010100 '
b100000000100100000000000010100 -
b100000000100100000000000010100 .
b100000000100100000000000010100 F
b100000000100100000000000010100 L"
b100 ,
b10001 W
b10001 ?"
b101 U
b101 B"
b101 w"
b101 v"
b10001 q"
b101 ;
b101 ?
b10001 V
b10001 I"
b10001 P"
b10001 y"
b1010 X
b1010 ."
b1010 H"
b1010 {"
b1010000 j
b1010000 '"
b1010000 g"
b1100 g
b1100 E"
b1100 e"
b11100 i
b11100 )"
b11100 i"
b1001 L
b1001 +"
b1001 ,"
b1001 T"
b101 (
b101 +
b101 9
b101 w
b101 ("
b101 R"
b101 Y"
b101 ]"
b1000 K
b1000 -"
b1000 W"
b1000 r"
b100 v
b100 U"
b100 m"
b10100 e
b10100 M"
b10100 c"
b10100 h"
b10000 %
b10000 3
b10000 k
b10000 d"
b10000 l"
b100000000100010000000000000101 6
b100000000100010000000000000101 p
b100000000100010000000000000101 N"
b10000 f
b10000 C"
b10000 O"
1!
#65000
0!
#70000
b101 x
b101 {
b101 $"
b101 #"
b101 |
b101 ~
b11111111111111111111111111111010 z
b101 Q
b101 !"
b101 _"
b101 [
b101 \"
b101 `"
b101 o"
b101 s"
b1001 6"
b1010 5"
b10100 T
b10100 Q"
b10100 f"
b101 c
b101 a"
b101 z"
b10001 M
b10001 %"
b10001 }"
b10001 9"
b1001 ;"
b1010 :"
b10010 W
b10010 ?"
b10100 U
b10100 B"
b10100 w"
b10100 v"
b10010 q"
b10100 ;
b10100 ?
b11000 h
b11000 j"
b11000 k"
b10010010100001000000100010 '
b10010010100001000000100010 -
b10010010100001000000100010 .
b10010010100001000000100010 F
b10010010100001000000100010 L"
b101 ,
b1001 K
b1001 -"
b1001 W"
b1001 r"
b101 v
b101 U"
b101 m"
b1010000 i
b1010000 )"
b1010000 i"
b1010 L
b1010 +"
b1010 ,"
b1010 T"
b10001 (
b10001 +
b10001 9
b10001 w
b10001 ("
b10001 R"
b10001 Y"
b10001 ]"
b101 V
b101 I"
b101 P"
b101 y"
b10001 X
b10001 ."
b10001 H"
b10001 {"
b100100 j
b100100 '"
b100100 g"
b10000 g
b10000 E"
b10000 e"
b100000000100100000000000010100 6
b100000000100100000000000010100 p
b100000000100100000000000010100 N"
b10100 f
b10100 C"
b10100 O"
b11000 e
b11000 M"
b11000 c"
b11000 h"
b10100 %
b10100 3
b10100 k
b10100 d"
b10100 l"
1!
#75000
0!
#80000
b110 :
b110 >
b110 A
b110 E
b110 <"
12
08
b10 =
b10 @
b10 C
b11000010 D
b10100 x
b10100 {
b10100 $"
b10100 #"
b10100 |
b10100 ~
b11111111111111111111111111101011 z
b10100 Q
b10100 !"
b10100 _"
bx R
bx A"
bx u"
b1010000 T
b1010000 Q"
b1010000 f"
b10100 c
b10100 a"
b10100 z"
b10010 M
b10010 %"
b10010 }"
b10010 9"
b1010 ;"
b10001 :"
b1010 6"
b10001 5"
b10001 [
b10001 \"
b10001 `"
b10001 o"
b10001 s"
b11100 h
b11100 j"
b11100 k"
b10100010010000000100100 '
b10100010010000000100100 -
b10100010010000000100100 .
b10100010010000000100100 F
b10100010010000000100100 L"
b110 ,
b10 a
b10 ="
b1010 W
b1010 ?"
b10010 Y
b10010 >"
b1000000100010 U
b1000000100010 B"
b1000000100010 w"
b1000000100010 v"
b1010 q"
b10010 p"
b100010 ;
b100010 ?
b0 <
b0 B
b10100 V
b10100 I"
b10100 P"
b10100 y"
b10010 X
b10010 ."
b10010 H"
b10010 {"
b1100100 j
b1100100 '"
b1100100 g"
b10100 g
b10100 E"
b10100 e"
b100100 i
b100100 )"
b100100 i"
b10001 L
b10001 +"
b10001 ,"
b10001 T"
b101 (
b101 +
b101 9
b101 w
b101 ("
b101 R"
b101 Y"
b101 ]"
b1010 K
b1010 -"
b1010 W"
b1010 r"
b10001 v
b10001 U"
b10001 m"
b11100 e
b11100 M"
b11100 c"
b11100 h"
b11000 %
b11000 3
b11000 k
b11000 d"
b11000 l"
b10010010100001000000100010 6
b10010010100001000000100010 p
b10010010100001000000100010 N"
b11000 f
b11000 C"
b11000 O"
1!
#85000
0!
#90000
b0 :
b0 >
b0 A
b0 E
b0 <"
bx z
bx Q
bx !"
bx _"
xJ
bx x
bx {
bx $"
bx #"
bx |
bx ~
b10100 S
b10100 ""
b10100 ["
b101 [
b101 \"
b101 `"
b101 o"
b101 s"
b100000010001000 T
b100000010001000 Q"
b100000010001000 f"
bx c
bx a"
bx z"
b10 M
b10 %"
b10 }"
b1010 9"
b10001 ;"
b10010 :"
b10 r
b10 1"
b10 Z"
b10010 4"
b10001 6"
b10010 5"
b100 a
b100 ="
b10001 W
b10001 ?"
b10 Y
b10 >"
b10000000100100 U
b10000000100100 B"
b10000000100100 w"
b10000000100100 v"
b10001 q"
b10 p"
b100100 ;
b100100 ?
b100000 h
b100000 j"
b100000 k"
b1000000100011100000100101 '
b1000000100011100000100101 -
b1000000100011100000100101 .
b1000000100011100000100101 F
b1000000100011100000100101 L"
b111 ,
b10001 K
b10001 -"
b10001 W"
b10001 r"
b101 v
b101 U"
b101 m"
b1100100 i
b1100100 )"
b1100100 i"
b10010 L
b10010 +"
b10010 ,"
b10010 T"
b10100 (
b10100 +
b10100 9
b10100 w
b10100 ("
b10100 R"
b10100 Y"
b10100 ]"
1_
0u
b110 y
b110 }
b110 D"
b1000000100010 V
b1000000100010 I"
b1000000100010 P"
b1000000100010 y"
b10 b
b10 F"
b10 |"
b1010 X
b1010 ."
b1010 H"
b1010 {"
b10010 Z
b10010 /"
b10010 G"
bx d
bx J"
bx X"
b100000010100000 j
b100000010100000 '"
b100000010100000 g"
b11000 g
b11000 E"
b11000 e"
b10100010010000000100100 6
b10100010010000000100100 p
b10100010010000000100100 N"
b11100 f
b11100 C"
b11100 O"
b100000 e
b100000 M"
b100000 c"
b100000 h"
b11100 %
b11100 3
b11100 k
b11100 d"
b11100 l"
1!
#95000
0!
#100000
b1 :
b1 >
b1 A
b1 E
b1 <"
bx S
bx ""
bx ["
b100 R
b100 A"
b100 u"
bx x
bx {
bx $"
bx #"
b1000000010010000 T
b1000000010010000 Q"
b1000000010010000 f"
b100 M
b100 %"
b100 }"
b10001 9"
b10010 ;"
b10 :"
b10 4"
b10010 6"
b10 5"
b10100 [
b10100 \"
b10100 `"
b10100 o"
b10100 s"
b100100 h
b100100 j"
b100100 k"
b10010010100001100000100010 '
b10010010100001100000100010 -
b10010010100001100000100010 .
b10010010100001100000100010 F
b10010010100001100000100010 L"
b1000 ,
b111 a
b111 ="
b10 W
b10 ?"
b1000 Y
b1000 >"
b11100000100101 U
b11100000100101 B"
b11100000100101 w"
b11100000100101 v"
b10 q"
b1000 p"
b100101 ;
b100101 ?
b0 y
b0 }
b0 D"
b10000000100100 V
b10000000100100 I"
b10000000100100 P"
b10000000100100 y"
b100 b
b100 F"
b100 |"
b10001 X
b10001 ."
b10001 H"
b10001 {"
b10 Z
b10 /"
b10 G"
b1000000010101100 j
b1000000010101100 '"
b1000000010101100 g"
b11100 g
b11100 E"
b11100 e"
b100000010100000 i
b100000010100000 )"
b100000010100000 i"
b10 L
b10 +"
b10 ,"
b10 T"
bx (
bx +
bx 9
bx w
bx ("
bx R"
bx Y"
bx ]"
xI
b10010 K
b10010 -"
b10010 W"
b10010 r"
b10100 v
b10100 U"
b10100 m"
b100100 e
b100100 M"
b100100 c"
b100100 h"
b100000 %
b100000 3
b100000 k
b100000 d"
b100000 l"
b1000000100011100000100101 6
b1000000100011100000100101 p
b1000000100011100000100101 N"
b100000 f
b100000 C"
b100000 O"
1!
#105000
0!
#110000
b110 :
b110 >
b110 A
b110 E
b110 <"
0J
bx1xx x
bx1xx {
bx1xx $"
bx1xx #"
b100 S
b100 ""
b100 ["
b10001 O
b10001 @"
b10001 t"
b10100 R
b10100 A"
b10100 u"
bx [
bx \"
bx `"
bx o"
bx s"
b1110000010010100 T
b1110000010010100 Q"
b1110000010010100 f"
b111 M
b111 %"
b111 }"
b1 q
b1 0"
b1 ^"
b10 9"
b10 ;"
b100 :"
b0 r
b0 1"
b0 Z"
b1000 4"
b10 6"
b100 5"
b11 a
b11 ="
b1010 W
b1010 ?"
b10010 Y
b10010 >"
b1100000100010 U
b1100000100010 B"
b1100000100010 w"
b1100000100010 v"
b1010 q"
b10010 p"
b100010 ;
b100010 ?
b101000 h
b101000 j"
b101000 k"
b10001000110011000000100100 '
b10001000110011000000100100 -
b10001000110011000000100100 .
b10001000110011000000100100 F
b10001000110011000000100100 L"
b1001 ,
b10 K
b10 -"
b10 W"
b10 r"
bx v
bx U"
bx m"
b1000000010101100 i
b1000000010101100 )"
b1000000010101100 i"
b100 L
b100 +"
b100 ,"
b100 T"
b1 y
b1 }
b1 D"
b11100000100101 V
b11100000100101 I"
b11100000100101 P"
b11100000100101 y"
b111 b
b111 F"
b111 |"
b10 X
b10 ."
b10 H"
b10 {"
b1000 Z
b1000 /"
b1000 G"
b100 d
b100 J"
b100 X"
b1110000010110100 j
b1110000010110100 '"
b1110000010110100 g"
b100000 g
b100000 E"
b100000 e"
b10010010100001100000100010 6
b10010010100001100000100010 p
b10010010100001100000100010 N"
b100100 f
b100100 C"
b100100 O"
b101000 e
b101000 M"
b101000 c"
b101000 h"
b100100 %
b100100 3
b100100 k
b100100 d"
b100100 l"
1!
#115000
0!
#120000
b0 :
b0 >
b0 A
b0 E
b0 <"
b11111111111111111111111111101110 ~
b11 |
b11111111111111111111111111101110 z
b10001 Q
b10001 !"
b10001 _"
b10100 S
b10100 ""
b10100 ["
bx O
bx @"
bx t"
b101 R
b101 A"
b101 u"
0J
b11 x
b11 {
b11 $"
b11 #"
b110000010001000 T
b110000010001000 Q"
b110000010001000 f"
b11 M
b11 %"
b11 }"
b10001 c
b10001 a"
b10001 z"
b0 q
b0 0"
b0 ^"
b1010 9"
b100 ;"
b111 :"
b10010 4"
b100 6"
b111 5"
b101100 h
b101100 j"
b101100 k"
b11010000010100000100101 '
b11010000010100000100101 -
b11010000010100000100101 .
b11010000010100000100101 F
b11010000010100000100101 L"
b1010 ,
b110 a
b110 ="
b11 W
b11 ?"
b10001 Y
b10001 >"
b11000000100100 U
b11000000100100 B"
b11000000100100 w"
b11000000100100 v"
b11 q"
b10001 p"
b100100 ;
b100100 ?
b110 y
b110 }
b110 D"
b1100000100010 V
b1100000100010 I"
b1100000100010 P"
b1100000100010 y"
b11 b
b11 F"
b11 |"
b1010 X
b1010 ."
b1010 H"
b1010 {"
b10010 Z
b10010 /"
b10010 G"
b10001 P
b10001 &"
b10001 K"
b10001 x"
b10100 d
b10100 J"
b10100 X"
b110000010101100 j
b110000010101100 '"
b110000010101100 g"
b100100 g
b100100 E"
b100100 e"
b1110000010110100 i
b1110000010110100 )"
b1110000010110100 i"
b111 L
b111 +"
b111 ,"
b111 T"
bx1xx (
bx1xx +
bx1xx 9
bx1xx w
bx1xx ("
bx1xx R"
bx1xx Y"
bx1xx ]"
0I
b100 K
b100 -"
b100 W"
b100 r"
b101100 e
b101100 M"
b101100 c"
b101100 h"
b101000 %
b101000 3
b101000 k
b101000 d"
b101000 l"
b10001000110011000000100100 6
b10001000110011000000100100 p
b10001000110011000000100100 N"
b101000 f
b101000 C"
b101000 O"
1!
#125000
0!
