MIPStest.vcd
$date
	Wed Aug 28 18:09:03 2019
$end
$version
	Icarus Verilog
$end
$timescale
	1ps
$end
$scope module MIPS_testbench $end
$scope module dut $end
$var wire 1 ! clk $end
$var wire 1 " reset $end
$var wire 32 # writedata [31:0] $end
$var wire 32 $ readdata [31:0] $end
$var wire 32 % pc [31:0] $end
$var wire 1 & memwrite $end
$var wire 32 ' instr [31:0] $end
$var wire 32 ( dataadr [31:0] $end
$scope module datamem $end
$var wire 1 ! clk $end
$var wire 32 ) rd [31:0] $end
$var wire 1 & we $end
$var wire 32 * wd [31:0] $end
$var wire 32 + a [31:0] $end
$upscope $end
$scope module imem $end
$var wire 6 , a [5:0] $end
$var wire 32 - rd [31:0] $end
$upscope $end
$scope module mips $end
$var wire 1 ! clk $end
$var wire 32 . instr [31:0] $end
$var wire 32 / readdata [31:0] $end
$var wire 1 " reset $end
$var wire 32 0 writedata [31:0] $end
$var wire 1 1 regwrite_id $end
$var wire 1 2 regdst_id $end
$var wire 32 3 pc [31:0] $end
$var wire 1 & memwrite_mem $end
$var wire 1 4 memwrite_id $end
$var wire 1 5 memtoreg_id $end
$var wire 32 6 instr_id [31:0] $end
$var wire 1 7 branch_id $end
$var wire 1 8 alusrc_id $end
$var wire 32 9 aluout [31:0] $end
$var wire 3 : alucontrol_id [2:0] $end
$scope module c $end
$var wire 6 ; funct [5:0] $end
$var wire 6 < op [5:0] $end
$var wire 1 1 regwrite $end
$var wire 1 2 regdst $end
$var wire 1 4 memwrite $end
$var wire 1 5 memtoreg $end
$var wire 1 7 branch $end
$var wire 1 8 alusrc $end
$var wire 2 = aluop [1:0] $end
$var wire 3 > alucontrol [2:0] $end
$scope module ad $end
$var wire 6 ? funct [5:0] $end
$var wire 2 @ aluop [1:0] $end
$var reg 3 A alucontrol [2:0] $end
$upscope $end
$scope module md $end
$var wire 6 B op [5:0] $end
$var wire 1 1 regwrite $end
$var wire 1 2 regdst $end
$var wire 1 4 memwrite $end
$var wire 1 5 memtoreg $end
$var wire 1 7 branch $end
$var wire 1 8 alusrc $end
$var wire 2 C aluop [1:0] $end
$var reg 8 D controls [7:0] $end
$upscope $end
$upscope $end
$scope module dp $end
$var wire 3 E alucontrol_id [2:0] $end
$var wire 1 8 alusrc_id $end
$var wire 1 7 branch_id $end
$var wire 1 ! clk $end
$var wire 32 F instr [31:0] $end
$var wire 1 5 memtoreg_id $end
$var wire 1 4 memwrite_id $end
$var wire 1 G pcsrc $end
$var wire 32 H readdata_mem [31:0] $end
$var wire 1 2 regdst_id $end
$var wire 1 1 regwrite_id $end
$var wire 1 " reset $end
$var wire 1 I zero_mem $end
$var wire 1 J zero_ex $end
$var wire 5 K writereg_wb [4:0] $end
$var wire 5 L writereg_mem [4:0] $end
$var wire 5 M writereg_ex [4:0] $end
$var wire 32 N writedata_mem [31:0] $end
$var wire 32 O writedata_id [31:0] $end
$var wire 32 P writedata_ex [31:0] $end
$var wire 1 Q stall_if $end
$var wire 1 R stall_id $end
$var wire 32 S srcb [31:0] $end
$var wire 32 T srca_id [31:0] $end
$var wire 32 U srca_ex [31:0] $end
$var wire 32 V signimmsh [31:0] $end
$var wire 32 W signimm_id [31:0] $end
$var wire 32 X signimm_ex [31:0] $end
$var wire 5 Y rte_id [4:0] $end
$var wire 5 Z rte_ex [4:0] $end
$var wire 5 [ rse_id [4:0] $end
$var wire 5 \ rse_ex [4:0] $end
$var wire 32 ] result [31:0] $end
$var wire 1 ^ regwrite_wb $end
$var wire 1 _ regwrite_mem $end
$var wire 1 ` regwrite_ex $end
$var wire 1 a regdst_ex $end
$var wire 32 b readdata_wb [31:0] $end
$var wire 5 c rde_id [4:0] $end
$var wire 5 d rde_ex [4:0] $end
$var wire 32 e pre_srcb [31:0] $end
$var wire 32 f pre_srca_ex [31:0] $end
$var wire 32 g pcplus4_if [31:0] $end
$var wire 32 h pcplus4_id [31:0] $end
$var wire 32 i pcplus4_ex [31:0] $end
$var wire 32 j pcnext [31:0] $end
$var wire 32 k pcbranch_mem [31:0] $end
$var wire 32 l pcbranch_ex [31:0] $end
$var wire 32 m pc [31:0] $end
$var wire 1 & memwrite_mem $end
$var wire 1 n memwrite_ex $end
$var wire 1 o memtoreg_wb $end
$var wire 1 p memtoreg_mem $end
$var wire 1 q memtoreg_ex $end
$var wire 32 r instr_id [31:0] $end
$var wire 2 s forward_b [1:0] $end
$var wire 2 t forward_a [1:0] $end
$var wire 1 u flash_ex $end
$var wire 1 v branch_mem $end
$var wire 1 w branch_ex $end
$var wire 1 x alusrc_ex $end
$var wire 32 y aluout_wb [31:0] $end
$var wire 32 z aluout_mem [31:0] $end
$var wire 32 { aluout_ex [31:0] $end
$var wire 3 | alucontrol_ex [2:0] $end
$scope module alu $end
$var wire 32 } not_b [31:0] $end
$var wire 32 ~ y [31:0] $end
$var wire 1 J zero $end
$var wire 32 !" s [31:0] $end
$var wire 3 "" f [2:0] $end
$var wire 32 #" bb [31:0] $end
$var wire 32 $" b [31:0] $end
$var wire 32 %" a [31:0] $end
$var reg 32 &" out [31:0] $end
$upscope $end
$scope module ex_mem_pipeline $end
$var wire 1 ! clk $end
$var wire 32 '" in_aluout [31:0] $end
$var wire 1 J in_zero $end
$var wire 5 (" in_writereg [4:0] $end
$var wire 32 )" in_writedata [31:0] $end
$var wire 1 ` in_regwrite $end
$var wire 32 *" in_pcbranch [31:0] $end
$var wire 1 n in_memwrite $end
$var wire 1 q in_memtoreg $end
$var wire 1 w in_branch $end
$var reg 32 +" out_aluout [31:0] $end
$var reg 1 v out_branch $end
$var reg 1 p out_memtoreg $end
$var reg 1 & out_memwrite $end
$var reg 32 ," out_pcbranch [31:0] $end
$var reg 1 _ out_regwrite $end
$var reg 32 -" out_writedata [31:0] $end
$var reg 5 ." out_writereg [4:0] $end
$var reg 1 I out_zero $end
$upscope $end
$scope module hazard_check $end
$var wire 1 _ regwrite_mem $end
$var wire 5 /" rse_id [4:0] $end
$var wire 5 0" rte_id [4:0] $end
$var wire 1 R stall_id $end
$var wire 1 Q stall_if $end
$var wire 5 1" writereg_mem [4:0] $end
$var wire 5 2" writereg_wb [4:0] $end
$var wire 5 3" rte_ex [4:0] $end
$var wire 5 4" rse_ex [4:0] $end
$var wire 1 ^ regwrite_wb $end
$var wire 1 q memtoreg_ex $end
$var wire 2 5" forward_b [1:0] $end
$var wire 2 6" forward_a [1:0] $end
$var wire 1 u flash_ex $end
$scope function func_forward_a $end
$var reg 1 7" regwrite_mem $end
$var reg 1 8" regwrite_wb $end
$var reg 5 9" rse_ex [4:0] $end
$var reg 5 :" writereg_mem [4:0] $end
$var reg 5 ;" writereg_wb [4:0] $end
$upscope $end
$scope function func_forward_b $end
$var reg 1 <" regwrite_mem $end
$var reg 1 =" regwrite_wb $end
$var reg 5 >" rte_ex [4:0] $end
$var reg 5 ?" writereg_mem [4:0] $end
$var reg 5 @" writereg_wb [4:0] $end
$upscope $end
$scope function lwstall $end
$var reg 1 A" memtoreg_ex $end
$var reg 5 B" rse_id [4:0] $end
$var reg 5 C" rte_ex [4:0] $end
$var reg 5 D" rte_id [4:0] $end
$upscope $end
$upscope $end
$scope module id_ex_pipeline $end
$var wire 1 ! clk $end
$var wire 1 u flash_ex $end
$var wire 3 E" in_alucontrol [2:0] $end
$var wire 1 8 in_alusrc $end
$var wire 1 7 in_branch $end
$var wire 1 5 in_memtoreg $end
$var wire 1 4 in_memwrite $end
$var wire 5 F" in_rde [4:0] $end
$var wire 1 2 in_regdst $end
$var wire 1 1 in_regwrite $end
$var wire 5 G" in_rse [4:0] $end
$var wire 5 H" in_rte [4:0] $end
$var wire 32 I" in_writedata [31:0] $end
$var wire 32 J" in_srca [31:0] $end
$var wire 32 K" in_signimm [31:0] $end
$var wire 32 L" in_pcplus4 [31:0] $end
$var reg 3 M" out_alucontrol [2:0] $end
$var reg 1 x out_alusrc $end
$var reg 1 w out_branch $end
$var reg 1 q out_memtoreg $end
$var reg 1 n out_memwrite $end
$var reg 32 N" out_pcplus4 [31:0] $end
$var reg 5 O" out_rde [4:0] $end
$var reg 1 a out_regdst $end
$var reg 1 ` out_regwrite $end
$var reg 5 P" out_rse [4:0] $end
$var reg 5 Q" out_rte [4:0] $end
$var reg 32 R" out_signimm [31:0] $end
$var reg 32 S" out_srca [31:0] $end
$var reg 32 T" out_writedata [31:0] $end
$upscope $end
$scope module if_id_pipeline $end
$var wire 1 ! clk $end
$var wire 32 U" in_inst [31:0] $end
$var wire 1 " reset $end
$var wire 1 R stall_id $end
$var wire 32 V" in_pcplus4 [31:0] $end
$var reg 32 W" out_inst [31:0] $end
$var reg 32 X" out_pcplus4 [31:0] $end
$upscope $end
$scope module immsh $end
$var wire 32 Y" a [31:0] $end
$var wire 32 Z" y [31:0] $end
$upscope $end
$scope module mem_wb_pipeline $end
$var wire 1 ! clk $end
$var wire 32 [" in_aluout [31:0] $end
$var wire 1 p in_memtoreg $end
$var wire 32 \" in_readdata [31:0] $end
$var wire 1 _ in_regwrite $end
$var wire 5 ]" in_writereg [4:0] $end
$var reg 32 ^" out_aluout [31:0] $end
$var reg 1 o out_memtoreg $end
$var reg 32 _" out_readdata [31:0] $end
$var reg 1 ^ out_regwrite $end
$var reg 5 `" out_writereg [4:0] $end
$upscope $end
$scope module mux_forward_a $end
$var wire 32 a" d0 [31:0] $end
$var wire 32 b" d2 [31:0] $end
$var wire 2 c" s [1:0] $end
$var wire 32 d" y [31:0] $end
$var wire 32 e" d1 [31:0] $end
$upscope $end
$scope module mux_forward_b $end
$var wire 32 f" d2 [31:0] $end
$var wire 2 g" s [1:0] $end
$var wire 32 h" y [31:0] $end
$var wire 32 i" d1 [31:0] $end
$var wire 32 j" d0 [31:0] $end
$upscope $end
$scope module pcadd1 $end
$var wire 32 k" b [31:0] $end
$var wire 32 l" y [31:0] $end
$var wire 32 m" a [31:0] $end
$upscope $end
$scope module pcadd2 $end
$var wire 32 n" a [31:0] $end
$var wire 32 o" b [31:0] $end
$var wire 32 p" y [31:0] $end
$upscope $end
$scope module pcbrmux $end
$var wire 32 q" d0 [31:0] $end
$var wire 32 r" d1 [31:0] $end
$var wire 1 G s $end
$var wire 32 s" y [31:0] $end
$upscope $end
$scope module pcreg $end
$var wire 1 ! clk $end
$var wire 32 t" d [31:0] $end
$var wire 1 Q en $end
$var wire 1 " reset $end
$var reg 32 u" q [31:0] $end
$upscope $end
$scope module remux $end
$var wire 32 v" d0 [31:0] $end
$var wire 32 w" d1 [31:0] $end
$var wire 1 o s $end
$var wire 32 x" y [31:0] $end
$upscope $end
$scope module rf $end
$var wire 1 ! clk $end
$var wire 5 y" read_address1 [4:0] $end
$var wire 5 z" read_address2 [4:0] $end
$var wire 5 {" write_address3 [4:0] $end
$var wire 32 |" write_data3 [31:0] $end
$var wire 1 ^ write_enable $end
$var wire 32 }" read_data2 [31:0] $end
$var wire 32 ~" read_data1 [31:0] $end
$upscope $end
$scope module se $end
$var wire 16 !# a [15:0] $end
$var wire 32 "# y [31:0] $end
$upscope $end
$scope module srcbmux $end
$var wire 32 ## d0 [31:0] $end
$var wire 32 $# d1 [31:0] $end
$var wire 1 x s $end
$var wire 32 %# y [31:0] $end
$upscope $end
$scope module wrmux $end
$var wire 5 &# d0 [4:0] $end
$var wire 5 '# d1 [4:0] $end
$var wire 1 a s $end
$var wire 5 (# y [4:0] $end
$upscope $end
$upscope $end
$upscope $end
$upscope $end
$upscope $end
$enddefinitions $end
#0
$dumpvars
bx (#
bx '#
bx &#
bx %#
bx $#
bx ##
b0 "#
b0 !#
b0 ~"
b0 }"
b0 |"
b0 {"
b0 z"
b0 y"
b0 x"
bx w"
b0 v"
b0 u"
b100 t"
b100 s"
b0 r"
b100 q"
bx p"
bx00 o"
bx n"
b0 m"
b100 l"
b100 k"
bx j"
b0 i"
bx h"
b0 g"
b0 f"
b0 e"
bx d"
b0 c"
b0 b"
bx a"
b0 `"
bx _"
b0 ^"
b0 ]"
bx \"
b0 ["
bx00 Z"
bx Y"
b0 X"
b0 W"
b100 V"
b100000000010000000000000000100 U"
bx T"
bx S"
bx R"
bx Q"
bx P"
bx O"
bx N"
bx M"
b0 L"
b0 K"
b0 J"
b0 I"
b0 H"
b0 G"
b0 F"
b10 E"
b0 D"
bx C"
b0 B"
xA"
b0 @"
b0 ?"
bx >"
0="
0<"
b0 ;"
b0 :"
bx 9"
08"
07"
b0 6"
b0 5"
bx 4"
bx 3"
b0 2"
b0 1"
b0 0"
b0 /"
b0 ."
b0 -"
b0 ,"
b0 +"
bx *"
bx )"
bx ("
b0 '"
b0 &"
bx %"
bx $"
bx #"
bx ""
bx !"
b0 ~
bx }
bx |
b0 {
b0 z
b0 y
xx
xw
0v
0u
b0 t
b0 s
b0 r
xq
0p
0o
xn
b0 m
bx l
b0 k
b100 j
bx i
b0 h
b100 g
bx f
bx e
bx d
b0 c
bx b
xa
x`
0_
0^
b0 ]
bx \
b0 [
bx Z
b0 Y
bx X
b0 W
bx00 V
bx U
b0 T
bx S
1R
1Q
bx P
b0 O
b0 N
bx M
b0 L
b0 K
1J
1I
bx H
0G
b100000000010000000000000000100 F
b10 E
b11000010 D
b10 C
b0 B
b10 A
b10 @
b0 ?
b10 >
b10 =
b0 <
b0 ;
b10 :
b0 9
08
07
b0 6
05
04
b0 3
12
11
b0 0
bx /
b100000000010000000000000000100 .
b100000000010000000000000000100 -
b0 ,
b0 +
b0 *
bx )
b0 (
b100000000010000000000000000100 '
0&
b0 %
bx $
b0 #
1"
1!
$end
#5000
0!
#10000
b0 !"
b0 #"
b11111111111111111111111111111111 }
b0 S
b0 $"
b0 h"
bx j
bx s"
bx t"
b0 U
b0 %"
b0 d"
xG
1J
b0 {
b0 ~
b0 '"
b0 &"
b0 l
b0 *"
b0 p"
b0 V
b0 Z"
b0 o"
b0 M
b0 ("
b0 (#
b0 C"
0A"
b0 >"
bx ?"
x<"
b0 9"
bx :"
x7"
b0 e
b0 j"
b0 %#
x&
xv
x_
xp
bx k
bx ,"
bx r"
bx L
bx ."
bx 1"
bx ]"
bx #
bx *
bx 0
bx N
bx -"
1a
0x
b10 |
b10 ""
b10 M"
0n
0w
1`
0q
b0 X
b0 R"
b0 Y"
b0 $#
b0 d
b0 O"
b0 '#
b0 Z
b0 3"
b0 Q"
b0 &#
b0 \
b0 4"
b0 P"
b0 P
b0 )"
b0 T"
b0 ##
b0 f
b0 S"
b0 a"
b0 i
b0 N"
b0 n"
1!
#15000
0!
#20000
0G
b100 j
b100 s"
b100 t"
bx ]
bx e"
bx i"
bx x"
bx |"
bx @"
b0 ?"
1<"
x="
bx ;"
b0 :"
17"
x8"
0&
0v
1_
0p
b0 k
b0 ,"
b0 r"
b0 L
b0 ."
b0 1"
b0 ]"
b0 #
b0 *
b0 0
b0 N
b0 -"
x^
xo
bx K
bx 2"
bx `"
bx {"
1!
#22000
0"
#25000
0!
#30000
02
18
b0 =
b0 @
b0 C
b10100000 D
b1000 D"
bx O
bx I"
bx }"
b0 ]
b0 e"
b0 i"
b0 x"
b0 |"
b0 @"
1="
b0 ;"
18"
b1000 Y
b1000 0"
b1000 H"
b100 W
b100 K"
b100 "#
b100 !#
b1000 z"
b100 ;
b100 ?
b1000 <
b1000 B
b1000 j
b1000 s"
b1000 t"
b100000000010010000000000000101 '
b100000000010010000000000000101 -
b100000000010010000000000000101 .
b100000000010010000000000000101 F
b100000000010010000000000000101 U"
b1 ,
1^
0o
b0 K
b0 2"
b0 `"
b0 {"
b100000000010000000000000000100 6
b100000000010000000000000000100 r
b100000000010000000000000000100 W"
b100 h
b100 L"
b100 X"
b1000 g
b1000 V"
b1000 l"
b1000 q"
b100 %
b100 3
b100 m
b100 m"
b100 u"
1!
#35000
0!
#40000
0J
b100 {
b100 ~
b100 '"
b100 &"
b100 !"
b100 #"
b11111111111111111111111111111011 }
b100 S
b100 $"
b100 h"
b1000 M
b1000 ("
b1000 (#
b10000 V
b10000 Z"
b10000 o"
b1000 C"
b1001 D"
b1000 >"
b100 e
b100 j"
b100 %#
b1100 j
b1100 s"
b1100 t"
b100000000010100000000000010001 '
b100000000010100000000000010001 -
b100000000010100000000000010001 .
b100000000010100000000000010001 F
b100000000010100000000000010001 U"
b10 ,
b1001 Y
b1001 0"
b1001 H"
b101 W
b101 K"
b101 "#
b101 !#
b1001 z"
b101 ;
b101 ?
0a
1x
b100 X
b100 R"
b100 Y"
b100 $#
b1000 Z
b1000 3"
b1000 Q"
b1000 &#
bx P
bx )"
bx T"
bx ##
b10100 l
b10100 *"
b10100 p"
b100 i
b100 N"
b100 n"
b1100 g
b1100 V"
b1100 l"
b1100 q"
b1000 %
b1000 3
b1000 m
b1000 m"
b1000 u"
b100000000010010000000000000101 6
b100000000010010000000000000101 r
b100000000010010000000000000101 W"
b1000 h
b1000 L"
b1000 X"
1!
#45000
0!
#50000
b101 {
b101 ~
b101 '"
b101 &"
b101 !"
b101 #"
b11111111111111111111111111111010 }
b101 S
b101 $"
b101 h"
b1000 :"
b10100 V
b10100 Z"
b10100 o"
b101 e
b101 j"
b101 %#
b1001 M
b1001 ("
b1001 (#
b1001 C"
b1010 D"
b1001 >"
b1000 ?"
b1010 Y
b1010 0"
b1010 H"
b10001 W
b10001 K"
b10001 "#
b10001 !#
b1010 z"
b10001 ;
b10001 ?
b10000 j
b10000 s"
b10000 t"
b100000000100010000000000000101 '
b100000000100010000000000000101 -
b100000000100010000000000000101 .
b100000000100010000000000000101 F
b100000000100010000000000000101 U"
b11 ,
b10100 k
b10100 ,"
b10100 r"
b1000 L
b1000 ."
b1000 1"
b1000 ]"
bx #
bx *
bx 0
bx N
bx -"
b100 (
b100 +
b100 9
b100 z
b100 +"
b100 ["
b100 b"
b100 f"
0I
b101 X
b101 R"
b101 Y"
b101 $#
b1001 Z
b1001 3"
b1001 Q"
b1001 &#
b11100 l
b11100 *"
b11100 p"
b1000 i
b1000 N"
b1000 n"
b100000000010100000000000010001 6
b100000000010100000000000010001 r
b100000000010100000000000010001 W"
b1100 h
b1100 L"
b1100 X"
b10000 g
b10000 V"
b10000 l"
b10000 q"
b1100 %
b1100 3
b1100 m
b1100 m"
b1100 u"
1!
#55000
0!
#60000
b10001 {
b10001 ~
b10001 '"
b10001 &"
b10001 !"
b10001 #"
b11111111111111111111111111101110 }
b10001 S
b10001 $"
b10001 h"
b1000100 V
b1000100 Z"
b1000100 o"
b10001 e
b10001 j"
b10001 %#
b1010 M
b1010 ("
b1010 (#
b1010 C"
b10001 D"
b1010 >"
b1000 @"
b1001 ?"
b1000 ;"
b1001 :"
b100 ]
b100 e"
b100 i"
b100 x"
b100 |"
b10100 j
b10100 s"
b10100 t"
b100000000100100000000000010100 '
b100000000100100000000000010100 -
b100000000100100000000000010100 .
b100000000100100000000000010100 F
b100000000100100000000000010100 U"
b100 ,
b10001 Y
b10001 0"
b10001 H"
b101 W
b101 K"
b101 "#
b101 !#
b10001 z"
b101 ;
b101 ?
b10001 X
b10001 R"
b10001 Y"
b10001 $#
b1010 Z
b1010 3"
b1010 Q"
b1010 &#
b1010000 l
b1010000 *"
b1010000 p"
b1100 i
b1100 N"
b1100 n"
b11100 k
b11100 ,"
b11100 r"
b1001 L
b1001 ."
b1001 1"
b1001 ]"
b101 (
b101 +
b101 9
b101 z
b101 +"
b101 ["
b101 b"
b101 f"
b1000 K
b1000 2"
b1000 `"
b1000 {"
b100 y
b100 ^"
b100 v"
b10100 g
b10100 V"
b10100 l"
b10100 q"
b10000 %
b10000 3
b10000 m
b10000 m"
b10000 u"
b100000000100010000000000000101 6
b100000000100010000000000000101 r
b100000000100010000000000000101 W"
b10000 h
b10000 L"
b10000 X"
1!
#65000
0!
#70000
b101 {
b101 ~
b101 '"
b101 &"
b101 !"
b101 #"
b11111111111111111111111111111010 }
b101 S
b101 $"
b101 h"
b101 ]
b101 e"
b101 i"
b101 x"
b101 |"
b1001 ;"
b1010 :"
b10100 V
b10100 Z"
b10100 o"
b101 e
b101 j"
b101 %#
b10001 M
b10001 ("
b10001 (#
b10001 C"
b10010 D"
b10001 >"
b1001 @"
b1010 ?"
b10010 Y
b10010 0"
b10010 H"
b10100 W
b10100 K"
b10100 "#
b10100 !#
b10010 z"
b10100 ;
b10100 ?
b11000 j
b11000 s"
b11000 t"
b0 '
b0 -
b0 .
b0 F
b0 U"
b101 ,
b1001 K
b1001 2"
b1001 `"
b1001 {"
b101 y
b101 ^"
b101 v"
b1010000 k
b1010000 ,"
b1010000 r"
b1010 L
b1010 ."
b1010 1"
b1010 ]"
b10001 (
b10001 +
b10001 9
b10001 z
b10001 +"
b10001 ["
b10001 b"
b10001 f"
b101 X
b101 R"
b101 Y"
b101 $#
b10001 Z
b10001 3"
b10001 Q"
b10001 &#
b100100 l
b100100 *"
b100100 p"
b10000 i
b10000 N"
b10000 n"
b100000000100100000000000010100 6
b100000000100100000000000010100 r
b100000000100100000000000010100 W"
b10100 h
b10100 L"
b10100 X"
b11000 g
b11000 V"
b11000 l"
b11000 q"
b10100 %
b10100 3
b10100 m
b10100 m"
b10100 u"
1!
#75000
0!
#80000
12
08
b10 =
b10 @
b10 C
b11000010 D
b10100 {
b10100 ~
b10100 '"
b10100 &"
b10100 !"
b10100 #"
b11111111111111111111111111101011 }
b10100 S
b10100 $"
b10100 h"
b0 O
b0 I"
b0 }"
b1010000 V
b1010000 Z"
b1010000 o"
b10100 e
b10100 j"
b10100 %#
b10010 M
b10010 ("
b10010 (#
b10010 C"
b0 D"
b10010 >"
b1010 @"
b10001 ?"
b1010 ;"
b10001 :"
b10001 ]
b10001 e"
b10001 i"
b10001 x"
b10001 |"
b11100 j
b11100 s"
b11100 t"
b110 ,
b0 Y
b0 0"
b0 H"
b0 W
b0 K"
b0 "#
b0 !#
b0 z"
b0 ;
b0 ?
b0 <
b0 B
b10100 X
b10100 R"
b10100 Y"
b10100 $#
b10010 Z
b10010 3"
b10010 Q"
b10010 &#
b1100100 l
b1100100 *"
b1100100 p"
b10100 i
b10100 N"
b10100 n"
b100100 k
b100100 ,"
b100100 r"
b10001 L
b10001 ."
b10001 1"
b10001 ]"
b101 (
b101 +
b101 9
b101 z
b101 +"
b101 ["
b101 b"
b101 f"
b1010 K
b1010 2"
b1010 `"
b1010 {"
b10001 y
b10001 ^"
b10001 v"
b11100 g
b11100 V"
b11100 l"
b11100 q"
b11000 %
b11000 3
b11000 m
b11000 m"
b11000 u"
b0 6
b0 r
b0 W"
b11000 h
b11000 L"
b11000 X"
1!
#85000
0!
#90000
1J
b0 {
b0 ~
b0 '"
b0 &"
b0 !"
b0 #"
b11111111111111111111111111111111 }
b0 S
b0 $"
b0 h"
b101 ]
b101 e"
b101 i"
b101 x"
b101 |"
b10001 ;"
b10010 :"
b0 V
b0 Z"
b0 o"
b0 e
b0 j"
b0 %#
b0 M
b0 ("
b0 (#
b0 C"
b0 >"
b10001 @"
b10010 ?"
b100000 j
b100000 s"
b100000 t"
b111 ,
b10001 K
b10001 2"
b10001 `"
b10001 {"
b101 y
b101 ^"
b101 v"
b1100100 k
b1100100 ,"
b1100100 r"
b10010 L
b10010 ."
b10010 1"
b10010 ]"
b10100 (
b10100 +
b10100 9
b10100 z
b10100 +"
b10100 ["
b10100 b"
b10100 f"
1a
0x
b0 X
b0 R"
b0 Y"
b0 $#
b0 Z
b0 3"
b0 Q"
b0 &#
b0 P
b0 )"
b0 T"
b0 ##
b11000 l
b11000 *"
b11000 p"
b11000 i
b11000 N"
b11000 n"
b11100 h
b11100 L"
b11100 X"
b100000 g
b100000 V"
b100000 l"
b100000 q"
b11100 %
b11100 3
b11100 m
b11100 m"
b11100 u"
1!
#95000
0!
#100000
b10010 @"
b0 ?"
b10010 ;"
b0 :"
b10100 ]
b10100 e"
b10100 i"
b10100 x"
b10100 |"
b100100 j
b100100 s"
b100100 t"
b1000 ,
b11100 l
b11100 *"
b11100 p"
b11100 i
b11100 N"
b11100 n"
b11000 k
b11000 ,"
b11000 r"
b0 L
b0 ."
b0 1"
b0 ]"
b0 #
b0 *
b0 0
b0 N
b0 -"
b0 (
b0 +
b0 9
b0 z
b0 +"
b0 ["
b0 b"
b0 f"
1I
b10010 K
b10010 2"
b10010 `"
b10010 {"
b10100 y
b10100 ^"
b10100 v"
b100100 g
b100100 V"
b100100 l"
b100100 q"
b100000 %
b100000 3
b100000 m
b100000 m"
b100000 u"
b100000 h
b100000 L"
b100000 X"
1!
#105000
0!
#110000
b0 @"
b0 ;"
b0 ]
b0 e"
b0 i"
b0 x"
b0 |"
b101000 j
b101000 s"
b101000 t"
b10010010100001000000100010 '
b10010010100001000000100010 -
b10010010100001000000100010 .
b10010010100001000000100010 F
b10010010100001000000100010 U"
b1001 ,
b0 K
b0 2"
b0 `"
b0 {"
b0 y
b0 ^"
b0 v"
b11100 k
b11100 ,"
b11100 r"
b100000 l
b100000 *"
b100000 p"
b100000 i
b100000 N"
b100000 n"
b100100 h
b100100 L"
b100100 X"
b101000 g
b101000 V"
b101000 l"
b101000 q"
b100100 %
b100100 3
b100100 m
b100100 m"
b100100 u"
1!
#115000
0!
#120000
b110 :
b110 >
b110 A
b110 E
b110 E"
b1010 D"
b10010 B"
b10001 O
b10001 I"
b10001 }"
b10100 T
b10100 J"
b10100 ~"
b101100 j
b101100 s"
b101100 t"
b10100010010000000100100 '
b10100010010000000100100 -
b10100010010000000100100 .
b10100010010000000100100 F
b10100010010000000100100 U"
b1010 ,
b10 c
b10 F"
b1010 Y
b1010 0"
b1010 H"
b10010 [
b10010 /"
b10010 G"
b1000000100010 W
b1000000100010 K"
b1000000100010 "#
b1000000100010 !#
b1010 z"
b10010 y"
b100010 ;
b100010 ?
b100100 l
b100100 *"
b100100 p"
b100100 i
b100100 N"
b100100 n"
b100000 k
b100000 ,"
b100000 r"
b101100 g
b101100 V"
b101100 l"
b101100 q"
b101000 %
b101000 3
b101000 m
b101000 m"
b101000 u"
b10010010100001000000100010 6
b10010010100001000000100010 r
b10010010100001000000100010 W"
b101000 h
b101000 L"
b101000 X"
1!
#125000
0!
#130000
b0 :
b0 >
b0 A
b0 E
b0 E"
b11111111111111111111111111101110 }
b10001 S
b10001 $"
b10001 h"
0J
b11 {
b11 ~
b11 '"
b11 &"
b11 !"
b11111111111111111111111111101110 #"
b10100 U
b10100 %"
b10100 d"
b101 O
b101 I"
b101 }"
bx T
bx J"
bx ~"
b100000010001000 V
b100000010001000 Z"
b100000010001000 o"
b10 M
b10 ("
b10 (#
b1010 C"
b10001 D"
b10 B"
b1010 >"
b10010 9"
b10001 e
b10001 j"
b10001 %#
b100 c
b100 F"
b10001 Y
b10001 0"
b10001 H"
b10 [
b10 /"
b10 G"
b10000000100100 W
b10000000100100 K"
b10000000100100 "#
b10000000100100 !#
b10001 z"
b10 y"
b100100 ;
b100100 ?
b110000 j
b110000 s"
b110000 t"
b1000000100011100000100101 '
b1000000100011100000100101 -
b1000000100011100000100101 .
b1000000100011100000100101 F
b1000000100011100000100101 U"
b1011 ,
b100100 k
b100100 ,"
b100100 r"
b110 |
b110 ""
b110 M"
b1000000100010 X
b1000000100010 R"
b1000000100010 Y"
b1000000100010 $#
b10 d
b10 O"
b10 '#
b1010 Z
b1010 3"
b1010 Q"
b1010 &#
b10010 \
b10010 4"
b10010 P"
b10001 P
b10001 )"
b10001 T"
b10001 ##
b10100 f
b10100 S"
b10100 a"
b100000010110000 l
b100000010110000 *"
b100000010110000 p"
b101000 i
b101000 N"
b101000 n"
b10100010010000000100100 6
b10100010010000000100100 r
b10100010010000000100100 W"
b101100 h
b101100 L"
b101100 X"
b110000 g
b110000 V"
b110000 l"
b110000 q"
b101100 %
b101100 3
b101100 m
b101100 m"
b101100 u"
1!
#135000
0!
#140000
b1 :
b1 >
b1 A
b1 E
b1 E"
b11111111111111111111111111111010 }
b101 S
b101 $"
b101 h"
b1000 !"
b101 #"
b11 U
b11 %"
b11 d"
bx O
bx I"
bx }"
b100 T
b100 J"
b100 ~"
b1 {
b1 ~
b1 '"
b1 &"
b1000000010010000 V
b1000000010010000 Z"
b1000000010010000 o"
b100 M
b100 ("
b100 (#
b10001 C"
b10 D"
b1000 B"
b101 e
b101 j"
b101 %#
b10 t
b10 6"
b10 c"
b10 9"
b10 :"
b10001 >"
b10 ?"
b110100 j
b110100 s"
b110100 t"
b10010010100001100000100010 '
b10010010100001100000100010 -
b10010010100001100000100010 .
b10010010100001100000100010 F
b10010010100001100000100010 U"
b1100 ,
b111 c
b111 F"
b10 Y
b10 0"
b10 H"
b1000 [
b1000 /"
b1000 G"
b11100000100101 W
b11100000100101 K"
b11100000100101 "#
b11100000100101 !#
b10 z"
b1000 y"
b100101 ;
b100101 ?
b0 |
b0 ""
b0 M"
b10000000100100 X
b10000000100100 R"
b10000000100100 Y"
b10000000100100 $#
b100 d
b100 O"
b100 '#
b10001 Z
b10001 3"
b10001 Q"
b10001 &#
b10 \
b10 4"
b10 P"
b101 P
b101 )"
b101 T"
b101 ##
bx f
bx S"
bx a"
b1000000010111100 l
b1000000010111100 *"
b1000000010111100 p"
b101100 i
b101100 N"
b101100 n"
b100000010110000 k
b100000010110000 ,"
b100000010110000 r"
b10 L
b10 ."
b10 1"
b10 ]"
b10001 #
b10001 *
b10001 0
b10001 N
b10001 -"
b11 (
b11 +
b11 9
b11 z
b11 +"
b11 ["
b11 b"
b11 f"
0I
b110100 g
b110100 V"
b110100 l"
b110100 q"
b110000 %
b110000 3
b110000 m
b110000 m"
b110000 u"
b1000000100011100000100101 6
b1000000100011100000100101 r
b1000000100011100000100101 W"
b110000 h
b110000 L"
b110000 X"
1!
#145000
0!
