MIPStest.vcd
$date
	Thu Aug 22 04:42:21 2019
$end
$version
	Icarus Verilog
$end
$timescale
	1ps
$end
$scope module MIPS_testbench $end
$scope module dut $end
$var wire 1 ! clk $end
$var wire 1 " reset $end
$var wire 32 # writedata [31:0] $end
$var wire 32 $ readdata [31:0] $end
$var wire 32 % pc [31:0] $end
$var wire 1 & memwrite $end
$var wire 32 ' instr [31:0] $end
$var wire 32 ( dataadr [31:0] $end
$scope module datamem $end
$var wire 1 ! clk $end
$var wire 32 ) rd [31:0] $end
$var wire 1 & we $end
$var wire 32 * wd [31:0] $end
$var wire 32 + a [31:0] $end
$upscope $end
$scope module imem $end
$var wire 6 , a [5:0] $end
$var wire 32 - rd [31:0] $end
$upscope $end
$scope module mips $end
$var wire 1 ! clk $end
$var wire 32 . instr [31:0] $end
$var wire 32 / readdata [31:0] $end
$var wire 1 " reset $end
$var wire 1 0 zero $end
$var wire 32 1 writedata [31:0] $end
$var wire 1 2 regwrite $end
$var wire 1 3 regdst $end
$var wire 1 4 pcsrc $end
$var wire 32 5 pc [31:0] $end
$var wire 1 & memwrite $end
$var wire 1 6 memtoreg $end
$var wire 1 7 jump $end
$var wire 1 8 alusrc $end
$var wire 32 9 aluout [31:0] $end
$var wire 3 : alucontrol [2:0] $end
$scope module c $end
$var wire 6 ; funct [5:0] $end
$var wire 6 < op [5:0] $end
$var wire 1 4 pcsrc $end
$var wire 1 0 zero $end
$var wire 1 2 regwrite $end
$var wire 1 3 regdst $end
$var wire 1 & memwrite $end
$var wire 1 6 memtoreg $end
$var wire 1 7 jump $end
$var wire 1 = branch $end
$var wire 1 8 alusrc $end
$var wire 2 > aluop [1:0] $end
$var wire 3 ? alucontrol [2:0] $end
$scope module ad $end
$var wire 6 @ funct [5:0] $end
$var wire 2 A aluop [1:0] $end
$var reg 3 B alucontrol [2:0] $end
$upscope $end
$scope module md $end
$var wire 6 C op [5:0] $end
$var wire 1 2 regwrite $end
$var wire 1 3 regdst $end
$var wire 1 & memwrite $end
$var wire 1 6 memtoreg $end
$var wire 1 7 jump $end
$var wire 1 = branch $end
$var wire 1 8 alusrc $end
$var wire 2 D aluop [1:0] $end
$var reg 9 E controls [8:0] $end
$upscope $end
$upscope $end
$scope module dp $end
$var wire 3 F alucontrol [2:0] $end
$var wire 1 8 alusrc $end
$var wire 1 ! clk $end
$var wire 32 G instr [31:0] $end
$var wire 1 7 jump $end
$var wire 1 6 memtoreg $end
$var wire 1 4 pcsrc $end
$var wire 32 H readdata [31:0] $end
$var wire 1 3 regdst $end
$var wire 1 2 regwrite $end
$var wire 1 " reset $end
$var wire 1 0 zero $end
$var wire 5 I writereg [4:0] $end
$var wire 32 J writedata [31:0] $end
$var wire 32 K srcb [31:0] $end
$var wire 32 L srca [31:0] $end
$var wire 32 M signimmsh [31:0] $end
$var wire 32 N signimm [31:0] $end
$var wire 32 O result [31:0] $end
$var wire 32 P pcplus4 [31:0] $end
$var wire 32 Q pcnextbr [31:0] $end
$var wire 32 R pcnext [31:0] $end
$var wire 32 S pcbranch [31:0] $end
$var wire 32 T pc [31:0] $end
$var wire 32 U aluout [31:0] $end
$scope module alu $end
$var wire 3 V f [2:0] $end
$var wire 32 W not_b [31:0] $end
$var wire 32 X y [31:0] $end
$var wire 1 0 zero $end
$var wire 32 Y s [31:0] $end
$var wire 32 Z bb [31:0] $end
$var wire 32 [ b [31:0] $end
$var wire 32 \ a [31:0] $end
$var reg 32 ] out [31:0] $end
$upscope $end
$scope module immsh $end
$var wire 32 ^ y [31:0] $end
$var wire 32 _ a [31:0] $end
$upscope $end
$scope module pcadd1 $end
$var wire 32 ` b [31:0] $end
$var wire 32 a y [31:0] $end
$var wire 32 b a [31:0] $end
$upscope $end
$scope module pcadd2 $end
$var wire 32 c a [31:0] $end
$var wire 32 d b [31:0] $end
$var wire 32 e y [31:0] $end
$upscope $end
$scope module pcbrmux $end
$var wire 32 f d0 [31:0] $end
$var wire 32 g d1 [31:0] $end
$var wire 1 4 s $end
$var wire 32 h y [31:0] $end
$upscope $end
$scope module pcmux $end
$var wire 32 i d0 [31:0] $end
$var wire 32 j d1 [31:0] $end
$var wire 1 7 s $end
$var wire 32 k y [31:0] $end
$upscope $end
$scope module pcreg $end
$var wire 1 ! clk $end
$var wire 32 l d [31:0] $end
$var wire 1 " reset $end
$var reg 32 m q [31:0] $end
$upscope $end
$scope module remux $end
$var wire 32 n d0 [31:0] $end
$var wire 32 o d1 [31:0] $end
$var wire 1 6 s $end
$var wire 32 p y [31:0] $end
$upscope $end
$scope module rf $end
$var wire 1 ! clk $end
$var wire 5 q read_address1 [4:0] $end
$var wire 5 r read_address2 [4:0] $end
$var wire 32 s write_data3 [31:0] $end
$var wire 1 2 write_enable $end
$var wire 5 t write_address3 [4:0] $end
$var wire 32 u read_data2 [31:0] $end
$var wire 32 v read_data1 [31:0] $end
$upscope $end
$scope module se $end
$var wire 16 w a [15:0] $end
$var wire 32 x y [31:0] $end
$upscope $end
$scope module srcbmux $end
$var wire 32 y d0 [31:0] $end
$var wire 32 z d1 [31:0] $end
$var wire 1 8 s $end
$var wire 32 { y [31:0] $end
$upscope $end
$scope module wrmux $end
$var wire 5 | d0 [4:0] $end
$var wire 5 } d1 [4:0] $end
$var wire 1 3 s $end
$var wire 5 ~ y [4:0] $end
$upscope $end
$upscope $end
$upscope $end
$upscope $end
$upscope $end
$enddefinitions $end
#0
$dumpvars
b10 ~
b0 }
b10 |
b101 {
b101 z
bx y
b101 x
b101 w
b0 v
bx u
b10 t
b101 s
b10 r
b0 q
b101 p
bx o
b101 n
b0 m
b100 l
b100 k
b10000000000000010100 j
b100 i
b100 h
b11000 g
b100 f
b11000 e
b10100 d
b100 c
b0 b
b100 a
b100 `
b101 _
b10100 ^
b101 ]
b0 \
b101 [
b101 Z
b101 Y
b101 X
b11111111111111111111111111111010 W
b10 V
b101 U
b0 T
b11000 S
b100 R
b100 Q
b100 P
b101 O
b101 N
b10100 M
b0 L
b101 K
bx J
b10 I
bx H
b100000000000100000000000000101 G
b10 F
b101000000 E
b0 D
b1000 C
b10 B
b0 A
b101 @
b10 ?
b0 >
0=
b1000 <
b101 ;
b10 :
b101 9
18
07
06
b0 5
04
03
12
bx 1
00
bx /
b100000000000100000000000000101 .
b100000000000100000000000000101 -
b0 ,
b101 +
bx *
bx )
b101 (
b100000000000100000000000000101 '
0&
b0 %
bx $
bx #
1"
1!
$end
#5000
0!
#10000
b101 #
b101 *
b101 1
b101 J
b101 u
b101 y
1!
#15000
0!
#20000
1!
#22000
0"
#25000
0!
#30000
b1100 O
b1100 p
b1100 s
b1100 (
b1100 +
b1100 9
b1100 U
b1100 X
b1100 n
b1100 ]
b1100 Y
b1100 Z
b11111111111111111111111111110011 W
bx #
bx *
bx 1
bx J
bx u
bx y
b11 I
b11 t
b11 ~
b1100 K
b1100 [
b1100 {
b110000 M
b110000 ^
b110000 d
b1000 R
b1000 k
b1000 l
b1100 ;
b1100 @
b11000000000000110000 j
b11 r
b11 |
b1100 N
b1100 _
b1100 x
b1100 z
b1100 w
b1000 Q
b1000 h
b1000 i
b100000000000110000000000001100 '
b100000000000110000000000001100 -
b100000000000110000000000001100 .
b100000000000110000000000001100 G
b1 ,
b111000 S
b111000 e
b111000 g
b1000 P
b1000 a
b1000 c
b1000 f
b100 %
b100 5
b100 T
b100 b
b100 m
1!
#35000
0!
#40000
b11 O
b11 p
b11 s
b11 (
b11 +
b11 9
b11 U
b11 X
b11 n
b11 ]
b11 Y
b11111111111111111111111111110111 Z
b1000 W
b1100 L
b1100 \
b1100 v
b111 I
b111 t
b111 ~
b11111111111111111111111111110111 K
b11111111111111111111111111110111 [
b11111111111111111111111111110111 {
b11111111111111111111111111011100 M
b11111111111111111111111111011100 ^
b11111111111111111111111111011100 d
b1100 R
b1100 k
b1100 l
b110111 ;
b110111 @
b1100111111111111111011100 j
b11 q
b111 r
b111 |
b11111 }
b11111111111111111111111111110111 N
b11111111111111111111111111110111 _
b11111111111111111111111111110111 x
b11111111111111111111111111110111 z
b1111111111110111 w
bx #
bx *
bx 1
bx J
bx u
bx y
b1100 Q
b1100 h
b1100 i
b100000011001111111111111110111 '
b100000011001111111111111110111 -
b100000011001111111111111110111 .
b100000011001111111111111110111 G
b10 ,
b11111111111111111111111111101000 S
b11111111111111111111111111101000 e
b11111111111111111111111111101000 g
b1100 P
b1100 a
b1100 c
b1100 f
b1000 %
b1000 5
b1000 T
b1000 b
b1000 m
1!
#45000
0!
#50000
b1 :
b1 ?
b1 B
b1 F
b1 V
13
08
b10 >
b10 A
b10 D
b110000010 E
b111 O
b111 p
b111 s
b111 (
b111 +
b111 9
b111 U
b111 X
b111 n
b111 ]
b1000 Y
b101 Z
b11111111111111111111111111111010 W
b11 L
b11 \
b11 v
b100 I
b100 t
b100 ~
b101 K
b101 [
b101 {
b1000000010010100 M
b1000000010010100 ^
b1000000010010100 d
b10000 R
b10000 k
b10000 l
b0 <
b0 C
b100101 ;
b100101 @
b11100010001000000010010100 j
b111 q
b10 r
b10 |
b100 }
b10000000100101 N
b10000000100101 _
b10000000100101 x
b10000000100101 z
b10000000100101 w
b101 #
b101 *
b101 1
b101 J
b101 u
b101 y
b10000 Q
b10000 h
b10000 i
b111000100010000000100101 '
b111000100010000000100101 -
b111000100010000000100101 .
b111000100010000000100101 G
b11 ,
b1000000010100100 S
b1000000010100100 e
b1000000010100100 g
b10000 P
b10000 a
b10000 c
b10000 f
b1100 %
b1100 5
b1100 T
b1100 b
b1100 m
1!
#55000
0!
#60000
b0 :
b0 ?
b0 B
b0 F
b0 V
b100 O
b100 p
b100 s
b111 Z
b11111111111111111111111111111000 W
b10011 Y
b100 (
b100 +
b100 9
b100 U
b100 X
b100 n
b100 ]
b111 K
b111 [
b111 {
b1100 L
b1100 \
b1100 v
b111 #
b111 *
b111 1
b111 J
b111 u
b111 y
b101 I
b101 t
b101 ~
b1010000010010000 M
b1010000010010000 ^
b1010000010010000 d
b10100 R
b10100 k
b10100 l
b100100 ;
b100100 @
b1100100001010000010010000 j
b11 q
b100 r
b100 |
b101 }
b10100000100100 N
b10100000100100 _
b10100000100100 x
b10100000100100 z
b10100000100100 w
b10100 Q
b10100 h
b10100 i
b11001000010100000100100 '
b11001000010100000100100 -
b11001000010100000100100 .
b11001000010100000100100 G
b100 ,
b1010000010100100 S
b1010000010100100 e
b1010000010100100 g
b10100 P
b10100 a
b10100 c
b10100 f
b10000 %
b10000 5
b10000 T
b10000 b
b10000 m
1!
#65000
0!
#70000
b1011 O
b1011 p
b1011 s
b1011 (
b1011 +
b1011 9
b1011 U
b1011 X
b1011 n
b1011 ]
b10 :
b10 ?
b10 B
b10 F
b10 V
b1011 Y
b100 L
b100 \
b100 v
b1010000010000000 M
b1010000010000000 ^
b1010000010000000 d
b11000 R
b11000 k
b11000 l
b100000 ;
b100000 @
b10100100001010000010000000 j
b101 q
b10100000100000 N
b10100000100000 _
b10100000100000 x
b10100000100000 z
b10100000100000 w
b11000 Q
b11000 h
b11000 i
b101001000010100000100000 '
b101001000010100000100000 -
b101001000010100000100000 .
b101001000010100000100000 G
b101 ,
b1010000010011000 S
b1010000010011000 e
b1010000010011000 g
b11000 P
b11000 a
b11000 c
b11000 f
b10100 %
b10100 5
b10100 T
b10100 b
b10100 m
1!
#75000
0!
#80000
b110 :
b110 ?
b110 B
b110 F
b110 V
02
03
1=
b1 >
b1 A
b1 D
b100001 E
b11111111111111111111111111111100 Z
b11111111111111111111111111111100 W
b1000 O
b1000 p
b1000 s
b11 K
b11 [
b11 {
b1000 (
b1000 +
b1000 9
b1000 U
b1000 X
b1000 n
b1000 ]
b11 #
b11 *
b11 1
b11 J
b11 u
b11 y
b111 I
b111 t
b111 ~
b101000 M
b101000 ^
b101000 d
b1000 Y
b11100 R
b11100 k
b11100 l
b100 <
b100 C
b1010 ;
b1010 @
b10100111000000000000101000 j
b111 r
b111 |
b0 }
b1010 N
b1010 _
b1010 x
b1010 z
b1010 w
b1011 L
b1011 \
b1011 v
b11100 Q
b11100 h
b11100 i
b10000101001110000000000001010 '
b10000101001110000000000001010 -
b10000101001110000000000001010 .
b10000101001110000000000001010 G
b110 ,
b1000100 S
b1000100 e
b1000100 g
b11100 P
b11100 a
b11100 c
b11100 f
b11000 %
b11000 5
b11000 T
b11000 b
b11000 m
1!
#85000
0!
#90000
10
b111 :
b111 ?
b111 B
b111 F
b111 V
12
13
0=
b10 >
b10 A
b10 D
b110000010 E
b0 O
b0 p
b0 s
b11111111111111111111111111111000 Z
b0 (
b0 +
b0 9
b0 U
b0 X
b0 n
b0 ]
b11111111111111111111111111111000 W
b101 Y
b111 K
b111 [
b111 {
b1100 L
b1100 \
b1100 v
b111 #
b111 *
b111 1
b111 J
b111 u
b111 y
b100 I
b100 t
b100 ~
b1000000010101000 M
b1000000010101000 ^
b1000000010101000 d
b100000 R
b100000 k
b100000 l
b0 <
b0 C
b101010 ;
b101010 @
b1100100001000000010101000 j
b11 q
b100 r
b100 |
b100 }
b10000000101010 N
b10000000101010 _
b10000000101010 x
b10000000101010 z
b10000000101010 w
b100000 Q
b100000 h
b100000 i
b11001000010000000101010 '
b11001000010000000101010 -
b11001000010000000101010 .
b11001000010000000101010 G
b111 ,
b1000000011001000 S
b1000000011001000 e
b1000000011001000 g
b100000 P
b100000 a
b100000 c
b100000 f
b11100 %
b11100 5
b11100 T
b11100 b
b11100 m
1!
#95000
0!
#100000
14
02
03
1=
b1 >
b1 A
b1 D
b100001 E
b110 :
b110 ?
b110 B
b110 F
b110 V
b11111111111111111111111111111111 Z
b0 Y
b11111111111111111111111111111111 W
b0 L
b0 \
b0 v
b0 I
b0 t
b0 ~
b100 M
b100 ^
b100 d
b0 K
b0 [
b0 {
b101000 R
b101000 k
b101000 l
b100 <
b100 C
b1 ;
b1 @
b10000000000000000000000100 j
b100 q
b0 r
b0 |
b0 }
b1 N
b1 _
b1 x
b1 z
b1 w
b0 #
b0 *
b0 1
b0 J
b0 u
b0 y
b101000 Q
b101000 h
b101000 i
b10000100000000000000000000001 '
b10000100000000000000000000001 -
b10000100000000000000000000001 .
b10000100000000000000000000001 G
b1000 ,
b101000 S
b101000 e
b101000 g
b100100 P
b100100 a
b100100 c
b100100 f
b100000 %
b100000 5
b100000 T
b100000 b
b100000 m
1!
#105000
0!
#110000
b111 :
b111 ?
b111 B
b111 F
b111 V
12
13
0=
b10 >
b10 A
b10 D
b110000010 E
04
b1 O
b1 p
b1 s
b11111111111111111111111111111010 Z
00
b1 (
b1 +
b1 9
b1 U
b1 X
b1 n
b1 ]
b11111111111111111111111111111010 W
b11111111111111111111111111111110 Y
b101 K
b101 [
b101 {
b11 L
b11 \
b11 v
b101 #
b101 *
b101 1
b101 J
b101 u
b101 y
b100 I
b100 t
b100 ~
b1000000010101000 M
b1000000010101000 ^
b1000000010101000 d
b101100 R
b101100 k
b101100 l
b0 <
b0 C
b101010 ;
b101010 @
b11100010001000000010101000 j
b111 q
b10 r
b10 |
b100 }
b10000000101010 N
b10000000101010 _
b10000000101010 x
b10000000101010 z
b10000000101010 w
b101100 Q
b101100 h
b101100 i
b111000100010000000101010 '
b111000100010000000101010 -
b111000100010000000101010 .
b111000100010000000101010 G
b1010 ,
b1000000011010100 S
b1000000011010100 e
b1000000011010100 g
b101100 P
b101100 a
b101100 c
b101100 f
b101000 %
b101000 5
b101000 T
b101000 b
b101000 m
1!
#115000
0!
#120000
b1100 O
b1100 p
b1100 s
b1100 (
b1100 +
b1100 9
b1100 U
b1100 X
b1100 n
b1100 ]
b10 :
b10 ?
b10 B
b10 F
b10 V
b1011 Z
b11111111111111111111111111110100 W
b1100 Y
b1011 K
b1011 [
b1011 {
b1 L
b1 \
b1 v
b1011 #
b1011 *
b1011 1
b1011 J
b1011 u
b1011 y
b111 I
b111 t
b111 ~
b1110000010000000 M
b1110000010000000 ^
b1110000010000000 d
b110000 R
b110000 k
b110000 l
b100000 ;
b100000 @
b10000101001110000010000000 j
b100 q
b101 r
b101 |
b111 }
b11100000100000 N
b11100000100000 _
b11100000100000 x
b11100000100000 z
b11100000100000 w
b110000 Q
b110000 h
b110000 i
b100001010011100000100000 '
b100001010011100000100000 -
b100001010011100000100000 .
b100001010011100000100000 G
b1011 ,
b1110000010110000 S
b1110000010110000 e
b1110000010110000 g
b110000 P
b110000 a
b110000 c
b110000 f
b101100 %
b101100 5
b101100 T
b101100 b
b101100 m
1!
#125000
0!
#130000
b110 :
b110 ?
b110 B
b110 F
b110 V
b111 O
b111 p
b111 s
b111 (
b111 +
b111 9
b111 U
b111 X
b111 n
b111 ]
b11111111111111111111111111111010 Z
b11111111111111111111111111111010 W
b111 Y
b101 K
b101 [
b101 {
b1100 L
b1100 \
b1100 v
b101 #
b101 *
b101 1
b101 J
b101 u
b101 y
b1110000010001000 M
b1110000010001000 ^
b1110000010001000 d
b110100 R
b110100 k
b110100 l
b100010 ;
b100010 @
b11100010001110000010001000 j
b111 q
b10 r
b10 |
b11100000100010 N
b11100000100010 _
b11100000100010 x
b11100000100010 z
b11100000100010 w
b110100 Q
b110100 h
b110100 i
b111000100011100000100010 '
b111000100011100000100010 -
b111000100011100000100010 .
b111000100011100000100010 G
b1100 ,
b1110000010111100 S
b1110000010111100 e
b1110000010111100 g
b110100 P
b110100 a
b110100 c
b110100 f
b110000 %
b110000 5
b110000 T
b110000 b
b110000 m
1!
#135000
0!
#140000
02
03
18
1&
b0 >
b0 A
b0 D
b1010000 E
b10 :
b10 ?
b10 B
b10 F
b10 V
b1000100 Z
b11111111111111111111111110111011 W
b1010000 O
b1010000 p
b1010000 s
b1000100 K
b1000100 [
b1000100 {
b1010000 (
b1010000 +
b1010000 9
b1010000 U
b1010000 X
b1010000 n
b1010000 ]
b111 #
b111 *
b111 1
b111 J
b111 u
b111 y
b111 I
b111 t
b111 ~
b100010000 M
b100010000 ^
b100010000 d
b1010000 Y
b111000 R
b111000 k
b111000 l
b101011 <
b101011 C
b100 ;
b100 @
b1100111000000000100010000 j
b11 q
b111 r
b111 |
b0 }
b1000100 N
b1000100 _
b1000100 x
b1000100 z
b1000100 w
b1100 L
b1100 \
b1100 v
b111000 Q
b111000 h
b111000 i
b10101100011001110000000001000100 '
b10101100011001110000000001000100 -
b10101100011001110000000001000100 .
b10101100011001110000000001000100 G
b1101 ,
b101001000 S
b101001000 e
b101001000 g
b111000 P
b111000 a
b111000 c
b111000 f
b110100 %
b110100 5
b110100 T
b110100 b
b110100 m
1!
#145000
0!
#150000
b111 O
b111 p
b111 s
12
0&
16
b101001000 E
b1010000 Z
b11111111111111111111111110101111 W
b0 L
b0 \
b0 v
b101 #
b101 *
b101 1
b101 J
b101 u
b101 y
b10 I
b10 t
b10 ~
b1010000 K
b1010000 [
b1010000 {
b101000000 M
b101000000 ^
b101000000 d
b111100 R
b111100 k
b111100 l
b100011 <
b100011 C
b10000 ;
b10000 @
b10000000000101000000 j
b0 q
b10 r
b10 |
b1010000 N
b1010000 _
b1010000 x
b1010000 z
b1010000 w
b111100 Q
b111100 h
b111100 i
b10001100000000100000000001010000 '
b10001100000000100000000001010000 -
b10001100000000100000000001010000 .
b10001100000000100000000001010000 G
b1110 ,
b111 $
b111 )
b111 /
b111 H
b111 o
b101111100 S
b101111100 e
b101111100 g
b111100 P
b111100 a
b111100 c
b111100 f
b111000 %
b111000 5
b111000 T
b111000 b
b111000 m
1!
#155000
0!
#160000
10
02
08
06
17
b100 E
b0 O
b0 p
b0 s
bx $
bx )
bx /
bx H
bx o
b0 (
b0 +
b0 9
b0 U
b0 X
b0 n
b0 ]
b0 Y
b0 Z
b11111111111111111111111111111111 W
b0 I
b0 t
b0 ~
b0 K
b0 [
b0 {
b1000100 M
b1000100 ^
b1000100 d
b1000100 R
b1000100 k
b1000100 l
b10 <
b10 C
b10001 ;
b10001 @
b1000100 j
b0 r
b0 |
b10001 N
b10001 _
b10001 x
b10001 z
b10001 w
b0 #
b0 *
b0 1
b0 J
b0 u
b0 y
b1000000 Q
b1000000 h
b1000000 i
b1000000000000000000000010001 '
b1000000000000000000000010001 -
b1000000000000000000000010001 .
b1000000000000000000000010001 G
b1111 ,
b10000100 S
b10000100 e
b10000100 g
b1000000 P
b1000000 a
b1000000 c
b1000000 f
b111100 %
b111100 5
b111100 T
b111100 b
b111100 m
1!
#165000
0!
#170000
18
1&
07
b1010000 E
b1010100 O
b1010100 p
b1010100 s
00
b1010100 (
b1010100 +
b1010100 9
b1010100 U
b1010100 X
b1010100 n
b1010100 ]
b1010100 Y
b1010100 Z
b11111111111111111111111110101011 W
b1010100 K
b1010100 [
b1010100 {
b1001000 R
b1001000 k
b1001000 l
b111 #
b111 *
b111 1
b111 J
b111 u
b111 y
b10 I
b10 t
b10 ~
b101010000 M
b101010000 ^
b101010000 d
b101011 <
b101011 C
b10100 ;
b10100 @
b10000000000101010000 j
b10 r
b10 |
b1010100 N
b1010100 _
b1010100 x
b1010100 z
b1010100 w
b1001000 Q
b1001000 h
b1001000 i
b10101100000000100000000001010100 '
b10101100000000100000000001010100 -
b10101100000000100000000001010100 .
b10101100000000100000000001010100 G
b10001 ,
b110011000 S
b110011000 e
b110011000 g
b1001000 P
b1001000 a
b1001000 c
b1001000 f
b1000100 %
b1000100 5
b1000100 T
b1000100 b
b1000100 m
1!
