MIPStest.vcd
$date
	Thu Aug 22 19:36:17 2019
$end
$version
	Icarus Verilog
$end
$timescale
	1ps
$end
$scope module MIPS_testbench $end
$scope module dut $end
$var wire 1 ! clk $end
$var wire 1 " reset $end
$var wire 32 # writedata [31:0] $end
$var wire 32 $ readdata [31:0] $end
$var wire 1 % memwrite $end
$var wire 32 & address [31:0] $end
$scope module idmem $end
$var wire 1 ! clk $end
$var wire 32 ' rd [31:0] $end
$var wire 1 % we $end
$var wire 32 ( wd [31:0] $end
$var wire 32 ) a [31:0] $end
$upscope $end
$scope module mips $end
$var wire 1 ! clk $end
$var wire 32 * readdata [31:0] $end
$var wire 1 " reset $end
$var wire 1 + zero $end
$var wire 32 , writedata [31:0] $end
$var wire 1 - regwrite $end
$var wire 1 . regdst $end
$var wire 2 / pcsrc [1:0] $end
$var wire 1 0 pcen $end
$var wire 1 % memwrite $end
$var wire 1 1 memtoreg $end
$var wire 1 2 lord $end
$var wire 1 3 irwrite $end
$var wire 32 4 instr [31:0] $end
$var wire 2 5 alusrcb [1:0] $end
$var wire 1 6 alusrca $end
$var wire 3 7 alucontrol [2:0] $end
$var wire 32 8 address [31:0] $end
$scope module c $end
$var wire 1 ! clk $end
$var wire 6 9 funct [5:0] $end
$var wire 6 : op [5:0] $end
$var wire 1 0 pcen $end
$var wire 1 " reset $end
$var wire 1 + zero $end
$var wire 1 - regwrite $end
$var wire 1 . regdst $end
$var wire 1 ; pcwrite $end
$var wire 2 < pcsrc [1:0] $end
$var wire 1 % memwrite $end
$var wire 1 1 memtoreg $end
$var wire 1 2 lord $end
$var wire 1 3 irwrite $end
$var wire 1 = branch $end
$var wire 2 > alusrcb [1:0] $end
$var wire 1 6 alusrca $end
$var wire 2 ? aluop [1:0] $end
$var wire 3 @ alucontrol [2:0] $end
$scope module ad $end
$var wire 6 A funct [5:0] $end
$var wire 2 B aluop [1:0] $end
$var reg 3 C alucontrol [2:0] $end
$upscope $end
$scope module md $end
$var wire 1 ! clk $end
$var wire 6 D op [5:0] $end
$var wire 1 " reset $end
$var wire 1 - regwrite $end
$var wire 1 . regdst $end
$var wire 1 ; pcwrite $end
$var wire 2 E pcsrc [1:0] $end
$var wire 1 % memwrite $end
$var wire 1 1 memtoreg $end
$var wire 1 2 lord $end
$var wire 1 3 irwrite $end
$var wire 1 = branch $end
$var wire 2 F alusrcb [1:0] $end
$var wire 1 6 alusrca $end
$var wire 2 G aluop [1:0] $end
$var reg 15 H controls [14:0] $end
$var reg 11 I next_state [10:0] $end
$var reg 11 J state [10:0] $end
$upscope $end
$upscope $end
$scope module dp $end
$var wire 3 K alucontrol [2:0] $end
$var wire 1 6 alusrca $end
$var wire 2 L alusrcb [1:0] $end
$var wire 1 ! clk $end
$var wire 1 3 irwrite $end
$var wire 1 2 lord $end
$var wire 1 1 memtoreg $end
$var wire 1 0 pcen $end
$var wire 2 M pcsrc [1:0] $end
$var wire 32 N readdata [31:0] $end
$var wire 1 . regdst $end
$var wire 1 - regwrite $end
$var wire 1 " reset $end
$var wire 1 + zero $end
$var wire 5 O writereg [4:0] $end
$var wire 32 P writedata [31:0] $end
$var wire 32 Q srcb [31:0] $end
$var wire 32 R srca [31:0] $end
$var wire 32 S signimmsh [31:0] $end
$var wire 32 T signimm [31:0] $end
$var wire 32 U rf_wd3 [31:0] $end
$var wire 32 V rf_rd2 [31:0] $end
$var wire 32 W rf_rd1 [31:0] $end
$var wire 32 X pre_srca [31:0] $end
$var wire 32 Y pcnext [31:0] $end
$var wire 32 Z pc [31:0] $end
$var wire 32 [ instr [31:0] $end
$var wire 32 \ data [31:0] $end
$var wire 32 ] aluout [31:0] $end
$var wire 32 ^ alu_result [31:0] $end
$var wire 32 _ address [31:0] $end
$scope module a_reg $end
$var wire 1 ! clk $end
$var wire 1 " reset $end
$var wire 32 ` d [31:0] $end
$var reg 32 a q [31:0] $end
$upscope $end
$scope module alu $end
$var wire 3 b f [2:0] $end
$var wire 32 c not_b [31:0] $end
$var wire 32 d y [31:0] $end
$var wire 1 + zero $end
$var wire 32 e s [31:0] $end
$var wire 32 f bb [31:0] $end
$var wire 32 g b [31:0] $end
$var wire 32 h a [31:0] $end
$var reg 32 i out [31:0] $end
$upscope $end
$scope module alu_mux $end
$var wire 1 2 s $end
$var wire 32 j y [31:0] $end
$var wire 32 k d1 [31:0] $end
$var wire 32 l d0 [31:0] $end
$upscope $end
$scope module alu_reg $end
$var wire 1 ! clk $end
$var wire 32 m d [31:0] $end
$var wire 1 " reset $end
$var reg 32 n q [31:0] $end
$upscope $end
$scope module b_reg $end
$var wire 1 ! clk $end
$var wire 1 " reset $end
$var wire 32 o d [31:0] $end
$var reg 32 p q [31:0] $end
$upscope $end
$scope module data_reg $end
$var wire 1 ! clk $end
$var wire 32 q d [31:0] $end
$var wire 1 " reset $end
$var reg 32 r q [31:0] $end
$upscope $end
$scope module immsh $end
$var wire 32 s y [31:0] $end
$var wire 32 t a [31:0] $end
$upscope $end
$scope module instr_reg $end
$var wire 1 ! clk $end
$var wire 32 u d [31:0] $end
$var wire 1 3 en $end
$var wire 1 " reset $end
$var reg 32 v q [31:0] $end
$upscope $end
$scope module pcmux $end
$var wire 32 w d0 [31:0] $end
$var wire 32 x d1 [31:0] $end
$var wire 32 y d2 [31:0] $end
$var wire 2 z s [1:0] $end
$var wire 32 { y [31:0] $end
$upscope $end
$scope module pcreg $end
$var wire 1 ! clk $end
$var wire 32 | d [31:0] $end
$var wire 1 0 en $end
$var wire 1 " reset $end
$var reg 32 } q [31:0] $end
$upscope $end
$scope module remux $end
$var wire 32 ~ d0 [31:0] $end
$var wire 32 !" d1 [31:0] $end
$var wire 1 1 s $end
$var wire 32 "" y [31:0] $end
$upscope $end
$scope module rf $end
$var wire 1 ! clk $end
$var wire 5 #" read_address1 [4:0] $end
$var wire 5 $" read_address2 [4:0] $end
$var wire 32 %" write_data3 [31:0] $end
$var wire 1 - write_enable $end
$var wire 5 &" write_address3 [4:0] $end
$var wire 32 '" read_data2 [31:0] $end
$var wire 32 (" read_data1 [31:0] $end
$upscope $end
$scope module se $end
$var wire 16 )" a [15:0] $end
$var wire 32 *" y [31:0] $end
$upscope $end
$scope module srcamux $end
$var wire 32 +" d0 [31:0] $end
$var wire 32 ," d1 [31:0] $end
$var wire 1 6 s $end
$var wire 32 -" y [31:0] $end
$upscope $end
$scope module srcbmux $end
$var wire 32 ." d0 [31:0] $end
$var wire 32 /" d1 [31:0] $end
$var wire 32 0" d2 [31:0] $end
$var wire 32 1" d3 [31:0] $end
$var wire 2 2" s [1:0] $end
$var wire 32 3" y [31:0] $end
$upscope $end
$scope module wrmux $end
$var wire 5 4" d0 [4:0] $end
$var wire 5 5" d1 [4:0] $end
$var wire 1 . s $end
$var wire 5 6" y [4:0] $end
$upscope $end
$upscope $end
$upscope $end
$upscope $end
$upscope $end
$enddefinitions $end
#0
$dumpvars
b0 6"
b0 5"
b0 4"
b100 3"
b1 2"
b0 1"
b0 0"
b100 /"
b0 ."
b0 -"
b0 ,"
b0 +"
b0 *"
b0 )"
b0 ("
b0 '"
b0 &"
b0 %"
b0 $"
b0 #"
b0 ""
b0 !"
b0 ~
b0 }
b100 |
b100 {
b0 z
b0 y
b0 x
b100 w
b0 v
b100000000000100000000000000101 u
b0 t
b0 s
b0 r
b100000000000100000000000000101 q
b0 p
b0 o
b0 n
b100 m
b0 l
b0 k
b0 j
b100 i
b0 h
b100 g
b100 f
b100 e
b100 d
b11111111111111111111111111111011 c
b10 b
b0 a
b0 `
b0 _
b100 ^
b0 ]
b0 \
b0 [
b0 Z
b100 Y
b0 X
b0 W
b0 V
b0 U
b0 T
b0 S
b0 R
b100 Q
b0 P
b0 O
b100000000000100000000000000101 N
b0 M
b1 L
b10 K
b0 J
b1 I
b11010000 H
b0 G
b1 F
b0 E
b0 D
b10 C
b0 B
b0 A
b10 @
b0 ?
b1 >
0=
b0 <
1;
b0 :
b0 9
b0 8
b10 7
06
b1 5
b0 4
13
02
01
10
b0 /
0.
0-
b0 ,
0+
b100000000000100000000000000101 *
b0 )
b0 (
b100000000000100000000000000101 '
b0 &
0%
b100000000000100000000000000101 $
b0 #
1"
1!
$end
#5000
0!
#10000
1!
#15000
0!
#20000
1!
#22000
0"
#25000
0!
#30000
b11000 Y
b11000 {
b11000 |
b10100 f
b11111111111111111111111111101011 c
b10100 Q
b10100 g
b10100 3"
b11000 ^
b11000 d
b11000 m
b11000 w
b11000 i
00
b10100 S
b10100 s
b10100 1"
b10 O
b10 &"
b10 6"
bx V
bx o
bx '"
b11000 e
b100000000000110000000000001100 $
b100000000000110000000000001100 '
b100000000000110000000000001100 *
b100000000000110000000000001100 N
b100000000000110000000000001100 q
b100000000000110000000000001100 u
b11 5
b11 >
b11 F
b11 L
b11 2"
03
0;
b100 U
b100 ""
b100 %"
b101 T
b101 t
b101 *"
b101 0"
b101 )"
b10 4"
b10 $"
b10000000000000010100 y
b101 9
b101 A
b1000 :
b1000 D
b100 R
b100 h
b100 -"
b100 &
b100 )
b100 8
b100 _
b100 j
b110000000 H
b100000000 I
b100 ]
b100 k
b100 n
b100 x
b100 ~
b100000000000100000000000000101 \
b100000000000100000000000000101 r
b100000000000100000000000000101 !"
b100000000000100000000000000101 4
b100000000000100000000000000101 [
b100000000000100000000000000101 v
b100 Z
b100 l
b100 }
b100 +"
b1 J
1!
#35000
0!
#40000
b101 Y
b101 {
b101 |
b101 f
b11111111111111111111111111111010 c
b101 ^
b101 d
b101 m
b101 w
b101 i
b101 Q
b101 g
b101 3"
b101 e
b0 R
b0 h
b0 -"
16
b10 5
b10 >
b10 F
b10 L
b10 2"
b1100000000 H
b1000000000 I
b11000 U
b11000 ""
b11000 %"
b100000000 J
b100000000000110000000000001100 \
b100000000000110000000000001100 r
b100000000000110000000000001100 !"
bx #
bx (
bx ,
bx P
bx p
bx ."
b11000 ]
b11000 k
b11000 n
b11000 x
b11000 ~
1!
#45000
0!
#50000
bx Y
bx {
bx |
x+
bx ^
bx d
bx m
bx w
bx i
bx f
bx c
bx e
bx Q
bx g
bx 3"
b100 R
b100 h
b100 -"
06
b0 5
b0 >
b0 F
b0 L
b0 2"
1-
b101 U
b101 ""
b101 %"
b100 H
b0 I
b101 ]
b101 k
b101 n
b101 x
b101 ~
b1000000000 J
1!
#55000
0!
#60000
b1000 Y
b1000 {
b1000 |
0+
b1000 ^
b1000 d
b1000 m
b1000 w
b1000 i
b1000 e
b100 f
b11111111111111111111111111111011 c
b100 Q
b100 g
b100 3"
10
b1 5
b1 >
b1 F
b1 L
b1 2"
13
1;
0-
b101 V
b101 o
b101 '"
b11010000 H
b1 I
bx U
bx ""
bx %"
b0 J
bx ]
bx k
bx n
bx x
bx ~
1!
#65000
0!
#70000
b111000 Y
b111000 {
b111000 |
b110000 f
b11111111111111111111111111001111 c
b110000 Q
b110000 g
b110000 3"
b111000 ^
b111000 d
b111000 m
b111000 w
b111000 i
00
b110000 S
b110000 s
b110000 1"
b11 O
b11 &"
b11 6"
bx V
bx o
bx '"
b111000 e
b100000011001111111111111110111 $
b100000011001111111111111110111 '
b100000011001111111111111110111 *
b100000011001111111111111110111 N
b100000011001111111111111110111 q
b100000011001111111111111110111 u
b11 5
b11 >
b11 F
b11 L
b11 2"
03
0;
b1000 U
b1000 ""
b1000 %"
b1100 T
b1100 t
b1100 *"
b1100 0"
b1100 )"
b11 4"
b11 $"
b11000000000000110000 y
b1100 9
b1100 A
b1000 R
b1000 h
b1000 -"
b1000 &
b1000 )
b1000 8
b1000 _
b1000 j
b110000000 H
b100000000 I
b1000 ]
b1000 k
b1000 n
b1000 x
b1000 ~
b101 #
b101 (
b101 ,
b101 P
b101 p
b101 ."
b100000000000110000000000001100 4
b100000000000110000000000001100 [
b100000000000110000000000001100 v
b1000 Z
b1000 l
b1000 }
b1000 +"
b1 J
1!
#75000
0!
#80000
b1100 Y
b1100 {
b1100 |
b1100 f
b11111111111111111111111111110011 c
b1100 ^
b1100 d
b1100 m
b1100 w
b1100 i
b1100 Q
b1100 g
b1100 3"
b1100 e
b0 R
b0 h
b0 -"
16
b10 5
b10 >
b10 F
b10 L
b10 2"
b1100000000 H
b1000000000 I
b111000 U
b111000 ""
b111000 %"
b100000000 J
b100000011001111111111111110111 \
b100000011001111111111111110111 r
b100000011001111111111111110111 !"
bx #
bx (
bx ,
bx P
bx p
bx ."
b111000 ]
b111000 k
b111000 n
b111000 x
b111000 ~
1!
#85000
0!
#90000
bx Y
bx {
bx |
x+
bx ^
bx d
bx m
bx w
bx i
bx f
bx c
bx e
bx Q
bx g
bx 3"
b1000 R
b1000 h
b1000 -"
06
b0 5
b0 >
b0 F
b0 L
b0 2"
1-
b1100 U
b1100 ""
b1100 %"
b100 H
b0 I
b1100 ]
b1100 k
b1100 n
b1100 x
b1100 ~
b1000000000 J
1!
#95000
0!
#100000
b1100 Y
b1100 {
b1100 |
0+
b1100 ^
b1100 d
b1100 m
b1100 w
b1100 i
b1100 e
b100 f
b11111111111111111111111111111011 c
b100 Q
b100 g
b100 3"
10
b1 5
b1 >
b1 F
b1 L
b1 2"
13
1;
0-
b1100 V
b1100 o
b1100 '"
b11010000 H
b1 I
bx U
bx ""
bx %"
b0 J
bx ]
bx k
bx n
bx x
bx ~
1!
#105000
0!
#110000
b11111111111111111111111111101000 Y
b11111111111111111111111111101000 {
b11111111111111111111111111101000 |
b11111111111111111111111111011100 f
b100011 c
b11111111111111111111111111011100 Q
b11111111111111111111111111011100 g
b11111111111111111111111111011100 3"
b11111111111111111111111111101000 ^
b11111111111111111111111111101000 d
b11111111111111111111111111101000 m
b11111111111111111111111111101000 w
b11111111111111111111111111101000 i
00
b11111111111111111111111111011100 S
b11111111111111111111111111011100 s
b11111111111111111111111111011100 1"
b111 O
b111 &"
b111 6"
bx V
bx o
bx '"
b1100 W
b1100 `
b1100 ("
b11111111111111111111111111101000 e
b111000100010000000100101 $
b111000100010000000100101 '
b111000100010000000100101 *
b111000100010000000100101 N
b111000100010000000100101 q
b111000100010000000100101 u
b11 5
b11 >
b11 F
b11 L
b11 2"
03
0;
b1100 U
b1100 ""
b1100 %"
b11111111111111111111111111110111 T
b11111111111111111111111111110111 t
b11111111111111111111111111110111 *"
b11111111111111111111111111110111 0"
b1111111111110111 )"
b11111 5"
b111 4"
b111 $"
b11 #"
b1100111111111111111011100 y
b110111 9
b110111 A
b1100 R
b1100 h
b1100 -"
b1100 &
b1100 )
b1100 8
b1100 _
b1100 j
b110000000 H
b100000000 I
b1100 ]
b1100 k
b1100 n
b1100 x
b1100 ~
b1100 #
b1100 (
b1100 ,
b1100 P
b1100 p
b1100 ."
b100000011001111111111111110111 4
b100000011001111111111111110111 [
b100000011001111111111111110111 v
b1100 Z
b1100 l
b1100 }
b1100 +"
b1 J
1!
#115000
0!
#120000
b11 Y
b11 {
b11 |
b11 ^
b11 d
b11 m
b11 w
b11 i
b11 e
b11111111111111111111111111110111 f
b1000 c
b11111111111111111111111111110111 Q
b11111111111111111111111111110111 g
b11111111111111111111111111110111 3"
16
b10 5
b10 >
b10 F
b10 L
b10 2"
b1100000000 H
b1000000000 I
b11111111111111111111111111101000 U
b11111111111111111111111111101000 ""
b11111111111111111111111111101000 %"
b100000000 J
b111000100010000000100101 \
b111000100010000000100101 r
b111000100010000000100101 !"
b1100 X
b1100 a
b1100 ,"
bx #
bx (
bx ,
bx P
bx p
bx ."
b11111111111111111111111111101000 ]
b11111111111111111111111111101000 k
b11111111111111111111111111101000 n
b11111111111111111111111111101000 x
b11111111111111111111111111101000 ~
1!
#125000
0!
#130000
bx Y
bx {
bx |
x+
bx ^
bx d
bx m
bx w
bx i
bx e
bx f
bx c
bx Q
bx g
bx 3"
06
b0 5
b0 >
b0 F
b0 L
b0 2"
1-
b11 U
b11 ""
b11 %"
b100 H
b0 I
b11 ]
b11 k
b11 n
b11 x
b11 ~
b1000000000 J
1!
#135000
0!
#140000
b10000 Y
b10000 {
b10000 |
0+
b10000 ^
b10000 d
b10000 m
b10000 w
b10000 i
b10000 e
b100 f
b11111111111111111111111111111011 c
b100 Q
b100 g
b100 3"
10
b1 5
b1 >
b1 F
b1 L
b1 2"
13
1;
0-
b11 V
b11 o
b11 '"
b11010000 H
b1 I
bx U
bx ""
bx %"
b0 J
bx ]
bx k
bx n
bx x
bx ~
1!
#145000
0!
#150000
b1000000010100100 Y
b1000000010100100 {
b1000000010100100 |
b1000000010010100 f
b11111111111111110111111101101011 c
b1000000010010100 Q
b1000000010010100 g
b1000000010010100 3"
b1000000010100100 ^
b1000000010100100 d
b1000000010100100 m
b1000000010100100 w
b1000000010100100 i
00
b1000000010010100 S
b1000000010010100 s
b1000000010010100 1"
b10 O
b10 &"
b10 6"
b101 V
b101 o
b101 '"
b11 W
b11 `
b11 ("
b1000000010100100 e
b11001000010100000100100 $
b11001000010100000100100 '
b11001000010100000100100 *
b11001000010100000100100 N
b11001000010100000100100 q
b11001000010100000100100 u
b11 5
b11 >
b11 F
b11 L
b11 2"
03
0;
b10000 U
b10000 ""
b10000 %"
b10000000100101 T
b10000000100101 t
b10000000100101 *"
b10000000100101 0"
b10000000100101 )"
b100 5"
b10 4"
b10 $"
b111 #"
b11100010001000000010010100 y
b100101 9
b100101 A
b0 :
b0 D
b10000 R
b10000 h
b10000 -"
b10000 &
b10000 )
b10000 8
b10000 _
b10000 j
b110000000 H
b100000 I
b10000 ]
b10000 k
b10000 n
b10000 x
b10000 ~
b11 #
b11 (
b11 ,
b11 P
b11 p
b11 ."
b111000100010000000100101 4
b111000100010000000100101 [
b111000100010000000100101 v
b10000 Z
b10000 l
b10000 }
b10000 +"
b1 J
1!
#155000
0!
#160000
b1 7
b1 @
b1 C
b1 K
b1 b
b111 Y
b111 {
b111 |
b111 ^
b111 d
b111 m
b111 w
b111 i
b101 f
b11111111111111111111111111111010 c
b1000 e
b101 Q
b101 g
b101 3"
b11 R
b11 h
b11 -"
16
b0 5
b0 >
b0 F
b0 L
b0 2"
b10 ?
b10 B
b10 G
b1000000010 H
b1000000 I
b1000000010100100 U
b1000000010100100 ""
b1000000010100100 %"
b100000 J
b11001000010100000100100 \
b11001000010100000100100 r
b11001000010100000100100 !"
b11 X
b11 a
b11 ,"
b101 #
b101 (
b101 ,
b101 P
b101 p
b101 ."
b1000000010100100 ]
b1000000010100100 k
b1000000010100100 n
b1000000010100100 x
b1000000010100100 ~
1!
#165000
0!
#170000
b10 7
b10 @
b10 C
b10 K
b10 b
b10101 Y
b10101 {
b10101 |
b10101 e
b10101 ^
b10101 d
b10101 m
b10101 w
b10101 i
b100 O
b100 &"
b100 6"
b10000 R
b10000 h
b10000 -"
1.
06
1-
b0 ?
b0 B
b0 G
b111 U
b111 ""
b111 %"
b10000000000100 H
b0 I
b111 ]
b111 k
b111 n
b111 x
b111 ~
b1000000 J
1!
#175000
0!
#180000
b10100 Y
b10100 {
b10100 |
b10100 ^
b10100 d
b10100 m
b10100 w
b10100 i
b10100 e
b100 f
b11111111111111111111111111111011 c
b100 Q
b100 g
b100 3"
b10 O
b10 &"
b10 6"
10
0.
b1 5
b1 >
b1 F
b1 L
b1 2"
13
1;
0-
b11010000 H
b1 I
b10101 U
b10101 ""
b10101 %"
b0 J
b10101 ]
b10101 k
b10101 n
b10101 x
b10101 ~
1!
#185000
0!
#190000
b1010000010100100 Y
b1010000010100100 {
b1010000010100100 |
b1010000010010000 f
b11111111111111110101111101101111 c
b1010000010010000 Q
b1010000010010000 g
b1010000010010000 3"
b1010000010100100 ^
b1010000010100100 d
b1010000010100100 m
b1010000010100100 w
b1010000010100100 i
00
b1010000010010000 S
b1010000010010000 s
b1010000010010000 1"
b100 O
b100 &"
b100 6"
b111 V
b111 o
b111 '"
b1100 W
b1100 `
b1100 ("
b1010000010100100 e
b101001000010100000100000 $
b101001000010100000100000 '
b101001000010100000100000 *
b101001000010100000100000 N
b101001000010100000100000 q
b101001000010100000100000 u
b11 5
b11 >
b11 F
b11 L
b11 2"
03
0;
b10100 U
b10100 ""
b10100 %"
b10100000100100 T
b10100000100100 t
b10100000100100 *"
b10100000100100 0"
b10100000100100 )"
b101 5"
b100 4"
b100 $"
b11 #"
b1100100001010000010010000 y
b100100 9
b100100 A
b10100 R
b10100 h
b10100 -"
b10100 &
b10100 )
b10100 8
b10100 _
b10100 j
b110000000 H
b100000 I
b10100 ]
b10100 k
b10100 n
b10100 x
b10100 ~
b11001000010100000100100 4
b11001000010100000100100 [
b11001000010100000100100 v
b10100 Z
b10100 l
b10100 }
b10100 +"
b1 J
1!
#195000
0!
#200000
b0 7
b0 @
b0 C
b0 K
b0 b
b100 Y
b100 {
b100 |
b100 ^
b100 d
b100 m
b100 w
b100 i
b111 f
b11111111111111111111111111111000 c
b10011 e
b111 Q
b111 g
b111 3"
b1100 R
b1100 h
b1100 -"
16
b0 5
b0 >
b0 F
b0 L
b0 2"
b10 ?
b10 B
b10 G
b1000000010 H
b1000000 I
b1010000010100100 U
b1010000010100100 ""
b1010000010100100 %"
b100000 J
b101001000010100000100000 \
b101001000010100000100000 r
b101001000010100000100000 !"
b1100 X
b1100 a
b1100 ,"
b111 #
b111 (
b111 ,
b111 P
b111 p
b111 ."
b1010000010100100 ]
b1010000010100100 k
b1010000010100100 n
b1010000010100100 x
b1010000010100100 ~
1!
#205000
0!
#210000
b11011 Y
b11011 {
b11011 |
b11011 ^
b11011 d
b11011 m
b11011 w
b11011 i
b10 7
b10 @
b10 C
b10 K
b10 b
b11011 e
b101 O
b101 &"
b101 6"
b10100 R
b10100 h
b10100 -"
1.
06
1-
b0 ?
b0 B
b0 G
b100 U
b100 ""
b100 %"
b10000000000100 H
b0 I
b100 ]
b100 k
b100 n
b100 x
b100 ~
b1000000 J
1!
#215000
0!
#220000
b11000 Y
b11000 {
b11000 |
b11000 ^
b11000 d
b11000 m
b11000 w
b11000 i
b11000 e
b100 f
b11111111111111111111111111111011 c
b100 Q
b100 g
b100 3"
b100 O
b100 &"
b100 6"
10
0.
b1 5
b1 >
b1 F
b1 L
b1 2"
13
1;
0-
b11010000 H
b1 I
b11011 U
b11011 ""
b11011 %"
b0 J
b11011 ]
b11011 k
b11011 n
b11011 x
b11011 ~
1!
#225000
0!
#230000
b1010000010011000 Y
b1010000010011000 {
b1010000010011000 |
b1010000010000000 f
b11111111111111110101111101111111 c
b1010000010000000 Q
b1010000010000000 g
b1010000010000000 3"
b1010000010011000 ^
b1010000010011000 d
b1010000010011000 m
b1010000010011000 w
b1010000010011000 i
00
b1010000010000000 S
b1010000010000000 s
b1010000010000000 1"
b100 W
b100 `
b100 ("
b1010000010011000 e
b10000101001110000000000001010 $
b10000101001110000000000001010 '
b10000101001110000000000001010 *
b10000101001110000000000001010 N
b10000101001110000000000001010 q
b10000101001110000000000001010 u
b11 5
b11 >
b11 F
b11 L
b11 2"
03
0;
b11000 U
b11000 ""
b11000 %"
b10100000100000 T
b10100000100000 t
b10100000100000 *"
b10100000100000 0"
b10100000100000 )"
b101 #"
b10100100001010000010000000 y
b100000 9
b100000 A
b11000 R
b11000 h
b11000 -"
b11000 &
b11000 )
b11000 8
b11000 _
b11000 j
b110000000 H
b100000 I
b11000 ]
b11000 k
b11000 n
b11000 x
b11000 ~
b101001000010100000100000 4
b101001000010100000100000 [
b101001000010100000100000 v
b11000 Z
b11000 l
b11000 }
b11000 +"
b1 J
1!
#235000
0!
#240000
b1011 Y
b1011 {
b1011 |
b1011 ^
b1011 d
b1011 m
b1011 w
b1011 i
b111 f
b11111111111111111111111111111000 c
b1011 e
b111 Q
b111 g
b111 3"
b100 R
b100 h
b100 -"
16
b0 5
b0 >
b0 F
b0 L
b0 2"
b10 ?
b10 B
b10 G
b1000000010 H
b1000000 I
b1010000010011000 U
b1010000010011000 ""
b1010000010011000 %"
b100000 J
b10000101001110000000000001010 \
b10000101001110000000000001010 r
b10000101001110000000000001010 !"
b100 X
b100 a
b100 ,"
b1010000010011000 ]
b1010000010011000 k
b1010000010011000 n
b1010000010011000 x
b1010000010011000 ~
1!
#245000
0!
#250000
b11111 Y
b11111 {
b11111 |
b11111 ^
b11111 d
b11111 m
b11111 w
b11111 i
b11111 e
b101 O
b101 &"
b101 6"
b11000 R
b11000 h
b11000 -"
1.
06
1-
b0 ?
b0 B
b0 G
b1011 U
b1011 ""
b1011 %"
b10000000000100 H
b0 I
b1011 ]
b1011 k
b1011 n
b1011 x
b1011 ~
b1000000 J
1!
#255000
0!
#260000
b11100 Y
b11100 {
b11100 |
b11100 ^
b11100 d
b11100 m
b11100 w
b11100 i
b11100 e
b100 f
b11111111111111111111111111111011 c
b100 Q
b100 g
b100 3"
b100 O
b100 &"
b100 6"
10
0.
b1 5
b1 >
b1 F
b1 L
b1 2"
13
1;
0-
b1011 W
b1011 `
b1011 ("
b11010000 H
b1 I
b11111 U
b11111 ""
b11111 %"
b0 J
b11111 ]
b11111 k
b11111 n
b11111 x
b11111 ~
1!
#265000
0!
#270000
b1000100 Y
b1000100 {
b1000100 |
b101000 f
b11111111111111111111111111010111 c
b101000 Q
b101000 g
b101000 3"
b1000100 ^
b1000100 d
b1000100 m
b1000100 w
b1000100 i
00
b101000 S
b101000 s
b101000 1"
b111 O
b111 &"
b111 6"
b11 V
b11 o
b11 '"
b1000100 e
b11001000010000000101010 $
b11001000010000000101010 '
b11001000010000000101010 *
b11001000010000000101010 N
b11001000010000000101010 q
b11001000010000000101010 u
b11 5
b11 >
b11 F
b11 L
b11 2"
03
0;
b11100 U
b11100 ""
b11100 %"
b1010 T
b1010 t
b1010 *"
b1010 0"
b1010 )"
b0 5"
b111 4"
b111 $"
b10100111000000000000101000 y
b1010 9
b1010 A
b100 :
b100 D
b11100 R
b11100 h
b11100 -"
b11100 &
b11100 )
b11100 8
b11100 _
b11100 j
b110000000 H
b10000000 I
b11100 ]
b11100 k
b11100 n
b11100 x
b11100 ~
b1011 X
b1011 a
b1011 ,"
b10000101001110000000000001010 4
b10000101001110000000000001010 [
b10000101001110000000000001010 v
b11100 Z
b11100 l
b11100 }
b11100 +"
b1 J
1!
#275000
0!
#280000
b110 7
b110 @
b110 C
b110 K
b110 b
b1000 ^
b1000 d
b1000 m
b1000 w
b1000 i
b11111111111111111111111111111100 f
b11111111111111111111111111111100 c
b1000 e
b11 Q
b11 g
b11 3"
b1011 R
b1011 h
b1011 -"
b1 /
b1 <
b1 E
b1 M
b1 z
16
b0 5
b0 >
b0 F
b0 L
b0 2"
1=
b1 ?
b1 B
b1 G
b11000001001 H
b0 I
b1000100 U
b1000100 ""
b1000100 %"
b10000000 J
b11001000010000000101010 \
b11001000010000000101010 r
b11001000010000000101010 !"
b11 #
b11 (
b11 ,
b11 P
b11 p
b11 ."
b1000100 ]
b1000100 k
b1000100 n
b1000100 x
b1000100 ~
1!
#285000
0!
#290000
b10 7
b10 @
b10 C
b10 K
b10 b
b100 f
b11111111111111111111111111111011 c
b100000 ^
b100000 d
b100000 m
b100000 w
b100000 i
b100 Q
b100 g
b100 3"
b100000 e
b11100 R
b11100 h
b11100 -"
10
b100000 Y
b100000 {
b100000 |
b0 /
b0 <
b0 E
b0 M
b0 z
06
b1 5
b1 >
b1 F
b1 L
b1 2"
13
1;
0=
b0 ?
b0 B
b0 G
b1000 U
b1000 ""
b1000 %"
b11010000 H
b1 I
b1000 ]
b1000 k
b1000 n
b1000 x
b1000 ~
b0 J
1!
#295000
0!
#300000
b1000000010101000 f
b11111111111111110111111101010111 c
b1000000011001000 Y
b1000000011001000 {
b1000000011001000 |
b1000000010101000 Q
b1000000010101000 g
b1000000010101000 3"
00
b1000000011001000 ^
b1000000011001000 d
b1000000011001000 m
b1000000011001000 w
b1000000011001000 i
b11 5
b11 >
b11 F
b11 L
b11 2"
03
0;
b1000000011001000 e
b10000100000000000000000000001 $
b10000100000000000000000000001 '
b10000100000000000000000000001 *
b10000100000000000000000000001 N
b10000100000000000000000000001 q
b10000100000000000000000000001 u
b1000000010101000 S
b1000000010101000 s
b1000000010101000 1"
b100 O
b100 &"
b100 6"
b111 V
b111 o
b111 '"
b1100 W
b1100 `
b1100 ("
b110000000 H
b100000 I
b100000 R
b100000 h
b100000 -"
b100000 &
b100000 )
b100000 8
b100000 _
b100000 j
b10000000101010 T
b10000000101010 t
b10000000101010 *"
b10000000101010 0"
b10000000101010 )"
b100 5"
b100 4"
b100 $"
b11 #"
b1100100001000000010101000 y
b101010 9
b101010 A
b0 :
b0 D
b100000 U
b100000 ""
b100000 %"
b1 J
b100000 Z
b100000 l
b100000 }
b100000 +"
b11001000010000000101010 4
b11001000010000000101010 [
b11001000010000000101010 v
b100000 ]
b100000 k
b100000 n
b100000 x
b100000 ~
1!
#305000
0!
#310000
1+
b111 7
b111 @
b111 C
b111 K
b111 b
b0 Y
b0 {
b0 |
b0 ^
b0 d
b0 m
b0 w
b0 i
b11111111111111111111111111111000 f
b11111111111111111111111111111000 c
b101 e
b111 Q
b111 g
b111 3"
b1100 R
b1100 h
b1100 -"
16
b0 5
b0 >
b0 F
b0 L
b0 2"
b10 ?
b10 B
b10 G
b1000000011001000 U
b1000000011001000 ""
b1000000011001000 %"
b1000000010 H
b1000000 I
b1000000011001000 ]
b1000000011001000 k
b1000000011001000 n
b1000000011001000 x
b1000000011001000 ~
b111 #
b111 (
b111 ,
b111 P
b111 p
b111 ."
b1100 X
b1100 a
b1100 ,"
b10000100000000000000000000001 \
b10000100000000000000000000001 r
b10000100000000000000000000001 !"
b100000 J
1!
#315000
0!
